G75*
%MOIN*%
%OFA0B0*%
%FSLAX24Y24*%
%IPPOS*%
%LPD*%
%AMOC8*
5,1,8,0,0,1.08239X$1,22.5*
%
%ADD10C,0.0000*%
%ADD11OC8,0.0520*%
%ADD12C,0.0669*%
%ADD13C,0.0709*%
%ADD14R,0.0866X0.0866*%
%ADD15C,0.0554*%
%ADD16C,0.0600*%
%ADD17R,0.0356X0.0356*%
%ADD18C,0.0160*%
%ADD19C,0.0157*%
D10*
X000834Y000972D02*
X000834Y011996D01*
X000836Y012050D01*
X000841Y012103D01*
X000850Y012156D01*
X000863Y012208D01*
X000879Y012260D01*
X000899Y012310D01*
X000922Y012358D01*
X000949Y012405D01*
X000978Y012450D01*
X001011Y012493D01*
X001046Y012533D01*
X001084Y012571D01*
X001124Y012606D01*
X001167Y012639D01*
X001212Y012668D01*
X001259Y012695D01*
X001307Y012718D01*
X001357Y012738D01*
X001409Y012754D01*
X001461Y012767D01*
X001514Y012776D01*
X001567Y012781D01*
X001621Y012783D01*
X007920Y012783D01*
X007920Y022232D01*
X001621Y022232D01*
X001566Y022235D01*
X001511Y022242D01*
X001456Y022252D01*
X001403Y022266D01*
X001350Y022283D01*
X001299Y022304D01*
X001249Y022328D01*
X001201Y022356D01*
X001154Y022386D01*
X001110Y022419D01*
X001068Y022455D01*
X001028Y022494D01*
X000991Y022535D01*
X000957Y022579D01*
X000926Y022625D01*
X000898Y022673D01*
X000873Y022722D01*
X000851Y022773D01*
X000833Y022825D01*
X000818Y022879D01*
X000807Y022933D01*
X000799Y022988D01*
X000795Y023043D01*
X000794Y023099D01*
X000794Y023098D02*
X000794Y024988D01*
X000795Y024989D02*
X000798Y025044D01*
X000805Y025098D01*
X000816Y025152D01*
X000830Y025206D01*
X000848Y025258D01*
X000870Y025308D01*
X000895Y025358D01*
X000923Y025405D01*
X000954Y025450D01*
X000989Y025493D01*
X001026Y025534D01*
X001066Y025572D01*
X001108Y025607D01*
X001153Y025639D01*
X001200Y025669D01*
X001248Y025694D01*
X001299Y025717D01*
X001350Y025736D01*
X001403Y025751D01*
X001457Y025763D01*
X001512Y025771D01*
X001567Y025775D01*
X001622Y025776D01*
X001621Y025776D02*
X017763Y025776D01*
X017763Y025775D02*
X017817Y025773D01*
X017870Y025768D01*
X017923Y025759D01*
X017975Y025746D01*
X018027Y025730D01*
X018077Y025710D01*
X018125Y025687D01*
X018172Y025660D01*
X018217Y025631D01*
X018260Y025598D01*
X018300Y025563D01*
X018338Y025525D01*
X018373Y025485D01*
X018406Y025442D01*
X018435Y025397D01*
X018462Y025350D01*
X018485Y025302D01*
X018505Y025252D01*
X018521Y025200D01*
X018534Y025148D01*
X018543Y025095D01*
X018548Y025042D01*
X018550Y024988D01*
X018550Y022823D01*
X018541Y022771D01*
X018528Y022721D01*
X018511Y022672D01*
X018490Y022624D01*
X018466Y022578D01*
X018439Y022533D01*
X018408Y022491D01*
X018375Y022452D01*
X018338Y022414D01*
X018299Y022380D01*
X018257Y022349D01*
X018214Y022321D01*
X018168Y022296D01*
X018120Y022275D01*
X018071Y022258D01*
X018021Y022244D01*
X017970Y022234D01*
X017918Y022227D01*
X017866Y022225D01*
X017814Y022227D01*
X017763Y022232D01*
X011464Y022232D01*
X011464Y012783D01*
X017763Y012783D01*
X017817Y012781D01*
X017870Y012776D01*
X017923Y012767D01*
X017975Y012754D01*
X018027Y012738D01*
X018077Y012718D01*
X018125Y012695D01*
X018172Y012668D01*
X018217Y012639D01*
X018260Y012606D01*
X018300Y012571D01*
X018338Y012533D01*
X018373Y012493D01*
X018406Y012450D01*
X018435Y012405D01*
X018462Y012358D01*
X018485Y012310D01*
X018505Y012260D01*
X018521Y012208D01*
X018534Y012156D01*
X018543Y012103D01*
X018548Y012050D01*
X018550Y011996D01*
X018550Y000972D01*
X018548Y000918D01*
X018543Y000865D01*
X018534Y000812D01*
X018521Y000760D01*
X018505Y000708D01*
X018485Y000658D01*
X018462Y000610D01*
X018435Y000563D01*
X018406Y000518D01*
X018373Y000475D01*
X018338Y000435D01*
X018300Y000397D01*
X018260Y000362D01*
X018217Y000329D01*
X018172Y000300D01*
X018125Y000273D01*
X018077Y000250D01*
X018027Y000230D01*
X017975Y000214D01*
X017923Y000201D01*
X017870Y000192D01*
X017817Y000187D01*
X017763Y000185D01*
X001621Y000185D01*
X001567Y000187D01*
X001514Y000192D01*
X001461Y000201D01*
X001409Y000214D01*
X001357Y000230D01*
X001307Y000250D01*
X001259Y000273D01*
X001212Y000300D01*
X001167Y000329D01*
X001124Y000362D01*
X001084Y000397D01*
X001046Y000435D01*
X001011Y000475D01*
X000978Y000518D01*
X000949Y000563D01*
X000922Y000610D01*
X000899Y000658D01*
X000879Y000708D01*
X000863Y000760D01*
X000850Y000812D01*
X000841Y000865D01*
X000836Y000918D01*
X000834Y000972D01*
X001227Y001169D02*
X001229Y001217D01*
X001235Y001265D01*
X001245Y001312D01*
X001258Y001358D01*
X001276Y001403D01*
X001296Y001447D01*
X001321Y001489D01*
X001349Y001528D01*
X001379Y001565D01*
X001413Y001599D01*
X001450Y001631D01*
X001488Y001660D01*
X001529Y001685D01*
X001572Y001707D01*
X001617Y001725D01*
X001663Y001739D01*
X001710Y001750D01*
X001758Y001757D01*
X001806Y001760D01*
X001854Y001759D01*
X001902Y001754D01*
X001950Y001745D01*
X001996Y001733D01*
X002041Y001716D01*
X002085Y001696D01*
X002127Y001673D01*
X002167Y001646D01*
X002205Y001616D01*
X002240Y001583D01*
X002272Y001547D01*
X002302Y001509D01*
X002328Y001468D01*
X002350Y001425D01*
X002370Y001381D01*
X002385Y001336D01*
X002397Y001289D01*
X002405Y001241D01*
X002409Y001193D01*
X002409Y001145D01*
X002405Y001097D01*
X002397Y001049D01*
X002385Y001002D01*
X002370Y000957D01*
X002350Y000913D01*
X002328Y000870D01*
X002302Y000829D01*
X002272Y000791D01*
X002240Y000755D01*
X002205Y000722D01*
X002167Y000692D01*
X002127Y000665D01*
X002085Y000642D01*
X002041Y000622D01*
X001996Y000605D01*
X001950Y000593D01*
X001902Y000584D01*
X001854Y000579D01*
X001806Y000578D01*
X001758Y000581D01*
X001710Y000588D01*
X001663Y000599D01*
X001617Y000613D01*
X001572Y000631D01*
X001529Y000653D01*
X001488Y000678D01*
X001450Y000707D01*
X001413Y000739D01*
X001379Y000773D01*
X001349Y000810D01*
X001321Y000849D01*
X001296Y000891D01*
X001276Y000935D01*
X001258Y000980D01*
X001245Y001026D01*
X001235Y001073D01*
X001229Y001121D01*
X001227Y001169D01*
X001129Y010894D02*
X001131Y010921D01*
X001137Y010948D01*
X001146Y010974D01*
X001159Y010998D01*
X001175Y011021D01*
X001194Y011040D01*
X001216Y011057D01*
X001240Y011071D01*
X001265Y011081D01*
X001292Y011088D01*
X001319Y011091D01*
X001347Y011090D01*
X001374Y011085D01*
X001400Y011077D01*
X001424Y011065D01*
X001447Y011049D01*
X001468Y011031D01*
X001485Y011010D01*
X001500Y010986D01*
X001511Y010961D01*
X001519Y010935D01*
X001523Y010908D01*
X001523Y010880D01*
X001519Y010853D01*
X001511Y010827D01*
X001500Y010802D01*
X001485Y010778D01*
X001468Y010757D01*
X001447Y010739D01*
X001425Y010723D01*
X001400Y010711D01*
X001374Y010703D01*
X001347Y010698D01*
X001319Y010697D01*
X001292Y010700D01*
X001265Y010707D01*
X001240Y010717D01*
X001216Y010731D01*
X001194Y010748D01*
X001175Y010767D01*
X001159Y010790D01*
X001146Y010814D01*
X001137Y010840D01*
X001131Y010867D01*
X001129Y010894D01*
X002113Y010894D02*
X002115Y010921D01*
X002121Y010948D01*
X002130Y010974D01*
X002143Y010998D01*
X002159Y011021D01*
X002178Y011040D01*
X002200Y011057D01*
X002224Y011071D01*
X002249Y011081D01*
X002276Y011088D01*
X002303Y011091D01*
X002331Y011090D01*
X002358Y011085D01*
X002384Y011077D01*
X002408Y011065D01*
X002431Y011049D01*
X002452Y011031D01*
X002469Y011010D01*
X002484Y010986D01*
X002495Y010961D01*
X002503Y010935D01*
X002507Y010908D01*
X002507Y010880D01*
X002503Y010853D01*
X002495Y010827D01*
X002484Y010802D01*
X002469Y010778D01*
X002452Y010757D01*
X002431Y010739D01*
X002409Y010723D01*
X002384Y010711D01*
X002358Y010703D01*
X002331Y010698D01*
X002303Y010697D01*
X002276Y010700D01*
X002249Y010707D01*
X002224Y010717D01*
X002200Y010731D01*
X002178Y010748D01*
X002159Y010767D01*
X002143Y010790D01*
X002130Y010814D01*
X002121Y010840D01*
X002115Y010867D01*
X002113Y010894D01*
X001227Y024791D02*
X001229Y024839D01*
X001235Y024887D01*
X001245Y024934D01*
X001258Y024980D01*
X001276Y025025D01*
X001296Y025069D01*
X001321Y025111D01*
X001349Y025150D01*
X001379Y025187D01*
X001413Y025221D01*
X001450Y025253D01*
X001488Y025282D01*
X001529Y025307D01*
X001572Y025329D01*
X001617Y025347D01*
X001663Y025361D01*
X001710Y025372D01*
X001758Y025379D01*
X001806Y025382D01*
X001854Y025381D01*
X001902Y025376D01*
X001950Y025367D01*
X001996Y025355D01*
X002041Y025338D01*
X002085Y025318D01*
X002127Y025295D01*
X002167Y025268D01*
X002205Y025238D01*
X002240Y025205D01*
X002272Y025169D01*
X002302Y025131D01*
X002328Y025090D01*
X002350Y025047D01*
X002370Y025003D01*
X002385Y024958D01*
X002397Y024911D01*
X002405Y024863D01*
X002409Y024815D01*
X002409Y024767D01*
X002405Y024719D01*
X002397Y024671D01*
X002385Y024624D01*
X002370Y024579D01*
X002350Y024535D01*
X002328Y024492D01*
X002302Y024451D01*
X002272Y024413D01*
X002240Y024377D01*
X002205Y024344D01*
X002167Y024314D01*
X002127Y024287D01*
X002085Y024264D01*
X002041Y024244D01*
X001996Y024227D01*
X001950Y024215D01*
X001902Y024206D01*
X001854Y024201D01*
X001806Y024200D01*
X001758Y024203D01*
X001710Y024210D01*
X001663Y024221D01*
X001617Y024235D01*
X001572Y024253D01*
X001529Y024275D01*
X001488Y024300D01*
X001450Y024329D01*
X001413Y024361D01*
X001379Y024395D01*
X001349Y024432D01*
X001321Y024471D01*
X001296Y024513D01*
X001276Y024557D01*
X001258Y024602D01*
X001245Y024648D01*
X001235Y024695D01*
X001229Y024743D01*
X001227Y024791D01*
X016956Y010894D02*
X016958Y010921D01*
X016964Y010948D01*
X016973Y010974D01*
X016986Y010998D01*
X017002Y011021D01*
X017021Y011040D01*
X017043Y011057D01*
X017067Y011071D01*
X017092Y011081D01*
X017119Y011088D01*
X017146Y011091D01*
X017174Y011090D01*
X017201Y011085D01*
X017227Y011077D01*
X017251Y011065D01*
X017274Y011049D01*
X017295Y011031D01*
X017312Y011010D01*
X017327Y010986D01*
X017338Y010961D01*
X017346Y010935D01*
X017350Y010908D01*
X017350Y010880D01*
X017346Y010853D01*
X017338Y010827D01*
X017327Y010802D01*
X017312Y010778D01*
X017295Y010757D01*
X017274Y010739D01*
X017252Y010723D01*
X017227Y010711D01*
X017201Y010703D01*
X017174Y010698D01*
X017146Y010697D01*
X017119Y010700D01*
X017092Y010707D01*
X017067Y010717D01*
X017043Y010731D01*
X017021Y010748D01*
X017002Y010767D01*
X016986Y010790D01*
X016973Y010814D01*
X016964Y010840D01*
X016958Y010867D01*
X016956Y010894D01*
X017940Y010894D02*
X017942Y010921D01*
X017948Y010948D01*
X017957Y010974D01*
X017970Y010998D01*
X017986Y011021D01*
X018005Y011040D01*
X018027Y011057D01*
X018051Y011071D01*
X018076Y011081D01*
X018103Y011088D01*
X018130Y011091D01*
X018158Y011090D01*
X018185Y011085D01*
X018211Y011077D01*
X018235Y011065D01*
X018258Y011049D01*
X018279Y011031D01*
X018296Y011010D01*
X018311Y010986D01*
X018322Y010961D01*
X018330Y010935D01*
X018334Y010908D01*
X018334Y010880D01*
X018330Y010853D01*
X018322Y010827D01*
X018311Y010802D01*
X018296Y010778D01*
X018279Y010757D01*
X018258Y010739D01*
X018236Y010723D01*
X018211Y010711D01*
X018185Y010703D01*
X018158Y010698D01*
X018130Y010697D01*
X018103Y010700D01*
X018076Y010707D01*
X018051Y010717D01*
X018027Y010731D01*
X018005Y010748D01*
X017986Y010767D01*
X017970Y010790D01*
X017957Y010814D01*
X017948Y010840D01*
X017942Y010867D01*
X017940Y010894D01*
X016975Y001169D02*
X016977Y001217D01*
X016983Y001265D01*
X016993Y001312D01*
X017006Y001358D01*
X017024Y001403D01*
X017044Y001447D01*
X017069Y001489D01*
X017097Y001528D01*
X017127Y001565D01*
X017161Y001599D01*
X017198Y001631D01*
X017236Y001660D01*
X017277Y001685D01*
X017320Y001707D01*
X017365Y001725D01*
X017411Y001739D01*
X017458Y001750D01*
X017506Y001757D01*
X017554Y001760D01*
X017602Y001759D01*
X017650Y001754D01*
X017698Y001745D01*
X017744Y001733D01*
X017789Y001716D01*
X017833Y001696D01*
X017875Y001673D01*
X017915Y001646D01*
X017953Y001616D01*
X017988Y001583D01*
X018020Y001547D01*
X018050Y001509D01*
X018076Y001468D01*
X018098Y001425D01*
X018118Y001381D01*
X018133Y001336D01*
X018145Y001289D01*
X018153Y001241D01*
X018157Y001193D01*
X018157Y001145D01*
X018153Y001097D01*
X018145Y001049D01*
X018133Y001002D01*
X018118Y000957D01*
X018098Y000913D01*
X018076Y000870D01*
X018050Y000829D01*
X018020Y000791D01*
X017988Y000755D01*
X017953Y000722D01*
X017915Y000692D01*
X017875Y000665D01*
X017833Y000642D01*
X017789Y000622D01*
X017744Y000605D01*
X017698Y000593D01*
X017650Y000584D01*
X017602Y000579D01*
X017554Y000578D01*
X017506Y000581D01*
X017458Y000588D01*
X017411Y000599D01*
X017365Y000613D01*
X017320Y000631D01*
X017277Y000653D01*
X017236Y000678D01*
X017198Y000707D01*
X017161Y000739D01*
X017127Y000773D01*
X017097Y000810D01*
X017069Y000849D01*
X017044Y000891D01*
X017024Y000935D01*
X017006Y000980D01*
X016993Y001026D01*
X016983Y001073D01*
X016977Y001121D01*
X016975Y001169D01*
X016975Y024791D02*
X016977Y024839D01*
X016983Y024887D01*
X016993Y024934D01*
X017006Y024980D01*
X017024Y025025D01*
X017044Y025069D01*
X017069Y025111D01*
X017097Y025150D01*
X017127Y025187D01*
X017161Y025221D01*
X017198Y025253D01*
X017236Y025282D01*
X017277Y025307D01*
X017320Y025329D01*
X017365Y025347D01*
X017411Y025361D01*
X017458Y025372D01*
X017506Y025379D01*
X017554Y025382D01*
X017602Y025381D01*
X017650Y025376D01*
X017698Y025367D01*
X017744Y025355D01*
X017789Y025338D01*
X017833Y025318D01*
X017875Y025295D01*
X017915Y025268D01*
X017953Y025238D01*
X017988Y025205D01*
X018020Y025169D01*
X018050Y025131D01*
X018076Y025090D01*
X018098Y025047D01*
X018118Y025003D01*
X018133Y024958D01*
X018145Y024911D01*
X018153Y024863D01*
X018157Y024815D01*
X018157Y024767D01*
X018153Y024719D01*
X018145Y024671D01*
X018133Y024624D01*
X018118Y024579D01*
X018098Y024535D01*
X018076Y024492D01*
X018050Y024451D01*
X018020Y024413D01*
X017988Y024377D01*
X017953Y024344D01*
X017915Y024314D01*
X017875Y024287D01*
X017833Y024264D01*
X017789Y024244D01*
X017744Y024227D01*
X017698Y024215D01*
X017650Y024206D01*
X017602Y024201D01*
X017554Y024200D01*
X017506Y024203D01*
X017458Y024210D01*
X017411Y024221D01*
X017365Y024235D01*
X017320Y024253D01*
X017277Y024275D01*
X017236Y024300D01*
X017198Y024329D01*
X017161Y024361D01*
X017127Y024395D01*
X017097Y024432D01*
X017069Y024471D01*
X017044Y024513D01*
X017024Y024557D01*
X017006Y024602D01*
X016993Y024648D01*
X016983Y024695D01*
X016977Y024743D01*
X016975Y024791D01*
D11*
X010692Y014634D03*
X009692Y014634D03*
X008692Y014634D03*
D12*
X006838Y005343D03*
X005460Y005343D03*
X004082Y005343D03*
X002704Y005343D03*
X012546Y005343D03*
X013924Y005343D03*
X015302Y005343D03*
X016680Y005343D03*
D13*
X011192Y009358D02*
X011192Y010067D01*
X010192Y010067D02*
X010192Y009358D01*
X009192Y009358D02*
X009192Y010067D01*
X008192Y010067D02*
X008192Y009358D01*
D14*
X003117Y010224D03*
X003117Y011563D03*
X016346Y011563D03*
X016346Y010224D03*
D15*
X011267Y011051D03*
X011267Y011839D03*
X010480Y011839D03*
X010480Y011051D03*
X009692Y011051D03*
X009692Y011839D03*
X008905Y011839D03*
X008905Y011051D03*
X008117Y011051D03*
X008117Y011839D03*
D16*
X009192Y012602D02*
X009192Y013202D01*
X010192Y013202D02*
X010192Y012602D01*
X010153Y005686D02*
X010153Y005086D01*
X009153Y005086D02*
X009153Y005686D01*
D17*
X002291Y010224D03*
X002251Y011563D03*
X017133Y011524D03*
X017133Y010224D03*
D18*
X016346Y010224D01*
X016385Y011524D02*
X016346Y011563D01*
X016385Y011524D02*
X017133Y011524D01*
X003117Y011563D02*
X002251Y011563D01*
X002291Y010224D02*
X003117Y010224D01*
D19*
X007527Y008610D02*
X009180Y008610D01*
X009180Y005386D01*
X009153Y005386D01*
X010125Y005386D02*
X010153Y005386D01*
X010125Y005386D02*
X010125Y008610D01*
X011857Y008610D01*
X011857Y012469D01*
X010192Y012469D01*
X010192Y012902D01*
X009192Y012902D02*
X009192Y012429D01*
X007527Y012429D01*
X007527Y008610D01*
M02*
