<?xml version="1.0" standalone="no"?>
<!DOCTYPE svg PUBLIC "-//W3C//DTD SVG 1.1//EN" "http://www.w3.org/Graphics/SVG/1.1/DTD/svg11.dtd">
<svg width="60.0000000000095mm" height="60.0000000000093mm"
 viewBox="0 0 60.0000000000095 60.0000000000093"
 xmlns="http://www.w3.org/2000/svg" version="1.1"
 xmlns:xlink="http://www.w3.org/1999/xlink">
<desc>Output from Flights of Ideas SVG Sketchup Plugin</desc>

  <g id="face0" fill="none" stroke="rgb(0,0,255)" stroke-width="1" stroke-miterlimit="4" stroke-dasharray="none" stroke-linejoin="round" stroke-linecap="round">
    <line x1="50.0000000000001" y1="50.0000000000093" x2="50.0000000000095" y2="10.0000000000093"/>
    <line x1="50.0000000000095" y1="10.0000000000093" x2="10.0000000000094" y2="10.0"/>
    <line x1="10.0000000000094" y1="10.0" x2="10.0" y2="50.0000000000093"/>
    <line x1="10.0" y1="50.0000000000093" x2="50.0000000000001" y2="50.0000000000093"/>
    <line x1="34.3207430602869" y1="40.1158874750127" x2="31.5553329740445" y2="40.8894875609445"/>
    <line x1="31.5553329740445" y1="40.8894875609445" x2="28.6839295159304" y2="40.9209870653275"/>
    <line x1="28.6839295159304" y1="40.9209870653275" x2="25.9022140863967" y2="40.2082393489931"/>
    <line x1="25.9022140863967" y1="40.2082393489931" x2="23.3997559949641" y2="38.7998169909383"/>
    <line x1="23.3997559949641" y1="38.7998169909383" x2="21.347093625056" y2="36.7917016473366"/>
    <line x1="21.347093625056" y1="36.7917016473366" x2="19.8841125249968" y2="34.3207430602868"/>
    <line x1="19.8841125249968" y1="34.3207430602868" x2="19.1105124390648" y2="31.5553329740443"/>
    <line x1="19.1105124390648" y1="31.5553329740443" x2="19.0790129346819" y2="28.6839295159303"/>
    <line x1="19.0790129346819" y1="28.6839295159303" x2="19.7917606510163" y2="25.9022140863967"/>
    <line x1="19.7917606510163" y1="25.9022140863967" x2="21.2001830090711" y2="23.3997559949639"/>
    <line x1="21.2001830090711" y1="23.3997559949639" x2="23.2082983526728" y2="21.3470936250558"/>
    <line x1="23.2082983526728" y1="21.3470936250558" x2="25.6792569397226" y2="19.8841125249966"/>
    <line x1="25.6792569397226" y1="19.8841125249966" x2="28.444667025965" y2="19.1105124390647"/>
    <line x1="28.444667025965" y1="19.1105124390647" x2="31.3160704840791" y2="19.0790129346818"/>
    <line x1="31.3160704840791" y1="19.0790129346818" x2="34.0977859136128" y2="19.7917606510162"/>
    <line x1="34.0977859136128" y1="19.7917606510162" x2="36.6002440050455" y2="21.200183009071"/>
    <line x1="36.6002440050455" y1="21.200183009071" x2="38.6529063749535" y2="23.2082983526727"/>
    <line x1="38.6529063749535" y1="23.2082983526727" x2="40.1158874750128" y2="25.6792569397225"/>
    <line x1="40.1158874750128" y1="25.6792569397225" x2="40.8894875609446" y2="28.444667025965"/>
    <line x1="40.8894875609446" y1="28.444667025965" x2="40.9209870653276" y2="31.3160704840789"/>
    <line x1="40.9209870653276" y1="31.3160704840789" x2="40.2082393489932" y2="34.0977859136126"/>
    <line x1="40.2082393489932" y1="34.0977859136126" x2="38.7998169909384" y2="36.6002440050453"/>
    <line x1="38.7998169909384" y1="36.6002440050453" x2="36.7917016473367" y2="38.6529063749534"/>
    <line x1="36.7917016473367" y1="38.6529063749534" x2="34.3207430602869" y2="40.1158874750127"/>
    <line x1="13.3579260953099" y1="44.5600076233265" x2="13.5277568135678" y2="44.1500000000008"/>
    <line x1="13.5277568135678" y1="44.1500000000008" x2="13.7979184719843" y2="43.7979184719837"/>
    <line x1="13.7979184719843" y1="43.7979184719837" x2="14.1500000000015" y2="43.5277568135674"/>
    <line x1="14.1500000000015" y1="43.5277568135674" x2="14.5600076233273" y2="43.3579260953096"/>
    <line x1="14.5600076233273" y1="43.3579260953096" x2="15.0000000000016" y2="43.3000000000012"/>
    <line x1="15.0000000000016" y1="43.3000000000012" x2="15.4399923766758" y2="43.3579260953098"/>
    <line x1="15.4399923766758" y1="43.3579260953098" x2="15.8500000000015" y2="43.5277568135678"/>
    <line x1="15.8500000000015" y1="43.5277568135678" x2="16.2020815280186" y2="43.7979184719842"/>
    <line x1="16.2020815280186" y1="43.7979184719842" x2="16.4722431864349" y2="44.1500000000015"/>
    <line x1="16.4722431864349" y1="44.1500000000015" x2="16.6420739046927" y2="44.5600076233273"/>
    <line x1="16.6420739046927" y1="44.5600076233273" x2="16.7000000000012" y2="45.0000000000015"/>
    <line x1="16.7000000000012" y1="45.0000000000015" x2="16.6420739046925" y2="45.4399923766758"/>
    <line x1="16.6420739046925" y1="45.4399923766758" x2="16.4722431864345" y2="45.8500000000015"/>
    <line x1="16.4722431864345" y1="45.8500000000015" x2="16.202081528018" y2="46.2020815280185"/>
    <line x1="16.202081528018" y1="46.2020815280185" x2="15.8500000000008" y2="46.4722431864349"/>
    <line x1="15.8500000000008" y1="46.4722431864349" x2="15.4399923766751" y2="46.6420739046926"/>
    <line x1="15.4399923766751" y1="46.6420739046926" x2="15.0000000000008" y2="46.7000000000011"/>
    <line x1="15.0000000000008" y1="46.7000000000011" x2="14.5600076233265" y2="46.6420739046925"/>
    <line x1="14.5600076233265" y1="46.6420739046925" x2="14.1500000000008" y2="46.4722431864345"/>
    <line x1="14.1500000000008" y1="46.4722431864345" x2="13.7979184719838" y2="46.202081528018"/>
    <line x1="13.7979184719838" y1="46.202081528018" x2="13.5277568135674" y2="45.8500000000008"/>
    <line x1="13.5277568135674" y1="45.8500000000008" x2="13.3579260953097" y2="45.4399923766751"/>
    <line x1="13.3579260953097" y1="45.4399923766751" x2="13.3000000000012" y2="45.0000000000008"/>
    <line x1="13.3000000000012" y1="45.0000000000008" x2="13.3579260953099" y2="44.5600076233265"/>
    <line x1="14.5600076233335" y1="16.6420739046925" x2="14.1500000000079" y2="16.4722431864345"/>
    <line x1="14.1500000000079" y1="16.4722431864345" x2="13.7979184719908" y2="16.202081528018"/>
    <line x1="13.7979184719908" y1="16.202081528018" x2="13.5277568135745" y2="15.8500000000008"/>
    <line x1="13.5277568135745" y1="15.8500000000008" x2="13.3579260953167" y2="15.439992376675"/>
    <line x1="13.3579260953167" y1="15.439992376675" x2="13.3000000000083" y2="15.0000000000007"/>
    <line x1="13.3000000000083" y1="15.0000000000007" x2="13.3579260953169" y2="14.5600076233265"/>
    <line x1="13.3579260953169" y1="14.5600076233265" x2="13.5277568135749" y2="14.1500000000008"/>
    <line x1="13.5277568135749" y1="14.1500000000008" x2="13.7979184719914" y2="13.7979184719837"/>
    <line x1="13.7979184719914" y1="13.7979184719837" x2="14.1500000000086" y2="13.5277568135674"/>
    <line x1="14.1500000000086" y1="13.5277568135674" x2="14.5600076233344" y2="13.3579260953096"/>
    <line x1="14.5600076233344" y1="13.3579260953096" x2="15.0000000000087" y2="13.3000000000011"/>
    <line x1="15.0000000000087" y1="13.3000000000011" x2="15.4399923766829" y2="13.3579260953098"/>
    <line x1="15.4399923766829" y1="13.3579260953098" x2="15.8500000000086" y2="13.5277568135678"/>
    <line x1="15.8500000000086" y1="13.5277568135678" x2="16.2020815280256" y2="13.7979184719843"/>
    <line x1="16.2020815280256" y1="13.7979184719843" x2="16.472243186442" y2="14.1500000000015"/>
    <line x1="16.472243186442" y1="14.1500000000015" x2="16.6420739046998" y2="14.5600076233272"/>
    <line x1="16.6420739046998" y1="14.5600076233272" x2="16.7000000000083" y2="15.0000000000015"/>
    <line x1="16.7000000000083" y1="15.0000000000015" x2="16.6420739046995" y2="15.4399923766758"/>
    <line x1="16.6420739046995" y1="15.4399923766758" x2="16.4722431864416" y2="15.8500000000015"/>
    <line x1="16.4722431864416" y1="15.8500000000015" x2="16.2020815280251" y2="16.2020815280185"/>
    <line x1="16.2020815280251" y1="16.2020815280185" x2="15.8500000000079" y2="16.4722431864349"/>
    <line x1="15.8500000000079" y1="16.4722431864349" x2="15.4399923766821" y2="16.6420739046926"/>
    <line x1="15.4399923766821" y1="16.6420739046926" x2="15.0000000000078" y2="16.7000000000011"/>
    <line x1="15.0000000000078" y1="16.7000000000011" x2="14.5600076233335" y2="16.6420739046925"/>
    <line x1="43.7979184719844" y1="43.7979184719907" x2="44.1500000000017" y2="43.5277568135744"/>
    <line x1="44.1500000000017" y1="43.5277568135744" x2="44.5600076233274" y2="43.3579260953166"/>
    <line x1="44.5600076233274" y1="43.3579260953166" x2="45.0000000000017" y2="43.3000000000081"/>
    <line x1="45.0000000000017" y1="43.3000000000081" x2="45.4399923766759" y2="43.3579260953168"/>
    <line x1="45.4399923766759" y1="43.3579260953168" x2="45.8500000000016" y2="43.5277568135748"/>
    <line x1="45.8500000000016" y1="43.5277568135748" x2="46.2020815280187" y2="43.7979184719913"/>
    <line x1="46.2020815280187" y1="43.7979184719913" x2="46.4722431864351" y2="44.1500000000085"/>
    <line x1="46.4722431864351" y1="44.1500000000085" x2="46.6420739046928" y2="44.5600076233342"/>
    <line x1="46.6420739046928" y1="44.5600076233342" x2="46.7000000000013" y2="45.0000000000086"/>
    <line x1="46.7000000000013" y1="45.0000000000086" x2="46.6420739046926" y2="45.4399923766828"/>
    <line x1="46.6420739046926" y1="45.4399923766828" x2="46.4722431864346" y2="45.8500000000085"/>
    <line x1="46.4722431864346" y1="45.8500000000085" x2="46.2020815280181" y2="46.2020815280255"/>
    <line x1="46.2020815280181" y1="46.2020815280255" x2="45.8500000000009" y2="46.4722431864419"/>
    <line x1="45.8500000000009" y1="46.4722431864419" x2="45.4399923766752" y2="46.6420739046997"/>
    <line x1="45.4399923766752" y1="46.6420739046997" x2="45.0000000000009" y2="46.7000000000081"/>
    <line x1="45.0000000000009" y1="46.7000000000081" x2="44.5600076233266" y2="46.6420739046995"/>
    <line x1="44.5600076233266" y1="46.6420739046995" x2="44.1500000000009" y2="46.4722431864415"/>
    <line x1="44.1500000000009" y1="46.4722431864415" x2="43.7979184719839" y2="46.202081528025"/>
    <line x1="43.7979184719839" y1="46.202081528025" x2="43.5277568135675" y2="45.8500000000078"/>
    <line x1="43.5277568135675" y1="45.8500000000078" x2="43.3579260953098" y2="45.439992376682"/>
    <line x1="43.3579260953098" y1="45.439992376682" x2="43.3000000000013" y2="45.0000000000078"/>
    <line x1="43.3000000000013" y1="45.0000000000078" x2="43.35792609531" y2="44.5600076233335"/>
    <line x1="43.35792609531" y1="44.5600076233335" x2="43.527756813568" y2="44.1500000000078"/>
    <line x1="43.527756813568" y1="44.1500000000078" x2="43.7979184719844" y2="43.7979184719907"/>
    <line x1="44.5600076233344" y1="13.3579260953166" x2="45.0000000000087" y2="13.3000000000082"/>
    <line x1="45.0000000000087" y1="13.3000000000082" x2="45.439992376683" y2="13.3579260953168"/>
    <line x1="45.439992376683" y1="13.3579260953168" x2="45.8500000000087" y2="13.5277568135748"/>
    <line x1="45.8500000000087" y1="13.5277568135748" x2="46.2020815280258" y2="13.7979184719913"/>
    <line x1="46.2020815280258" y1="13.7979184719913" x2="46.4722431864421" y2="14.1500000000085"/>
    <line x1="46.4722431864421" y1="14.1500000000085" x2="46.6420739046999" y2="14.5600076233342"/>
    <line x1="46.6420739046999" y1="14.5600076233342" x2="46.7000000000083" y2="15.0000000000085"/>
    <line x1="46.7000000000083" y1="15.0000000000085" x2="46.6420739046997" y2="15.4399923766828"/>
    <line x1="46.6420739046997" y1="15.4399923766828" x2="46.4722431864417" y2="15.8500000000085"/>
    <line x1="46.4722431864417" y1="15.8500000000085" x2="46.2020815280252" y2="16.2020815280256"/>
    <line x1="46.2020815280252" y1="16.2020815280256" x2="45.850000000008" y2="16.4722431864419"/>
    <line x1="45.850000000008" y1="16.4722431864419" x2="45.4399923766823" y2="16.6420739046997"/>
    <line x1="45.4399923766823" y1="16.6420739046997" x2="45.000000000008" y2="16.7000000000081"/>
    <line x1="45.000000000008" y1="16.7000000000081" x2="44.5600076233337" y2="16.6420739046995"/>
    <line x1="44.5600076233337" y1="16.6420739046995" x2="44.150000000008" y2="16.4722431864415"/>
    <line x1="44.150000000008" y1="16.4722431864415" x2="43.797918471991" y2="16.202081528025"/>
    <line x1="43.797918471991" y1="16.202081528025" x2="43.5277568135746" y2="15.8500000000078"/>
    <line x1="43.5277568135746" y1="15.8500000000078" x2="43.3579260953168" y2="15.4399923766821"/>
    <line x1="43.3579260953168" y1="15.4399923766821" x2="43.3000000000084" y2="15.0000000000078"/>
    <line x1="43.3000000000084" y1="15.0000000000078" x2="43.3579260953171" y2="14.5600076233335"/>
    <line x1="43.3579260953171" y1="14.5600076233335" x2="43.527756813575" y2="14.1500000000078"/>
    <line x1="43.527756813575" y1="14.1500000000078" x2="43.7979184719915" y2="13.7979184719907"/>
    <line x1="43.7979184719915" y1="13.7979184719907" x2="44.1500000000087" y2="13.5277568135744"/>
    <line x1="44.1500000000087" y1="13.5277568135744" x2="44.5600076233344" y2="13.3579260953166"/>
  </g>
</svg>
