<?xml version="1.0" standalone="no"?>
<!DOCTYPE svg PUBLIC "-//W3C//DTD SVG 1.1//EN" "http://www.w3.org/Graphics/SVG/1.1/DTD/svg11.dtd">
<svg width="77.0382208256294mm" height="2419.59999998607mm"
 viewBox="0 0 77.0382208256294 2419.59999998607"
 xmlns="http://www.w3.org/2000/svg" version="1.1"
 xmlns:xlink="http://www.w3.org/1999/xlink">
<desc>Output from Flights of Ideas SVG Sketchup Plugin</desc>

  <g id="face0" fill="none" stroke="rgb(0,0,255)" stroke-width="1" stroke-miterlimit="4" stroke-dasharray="none" stroke-linejoin="round" stroke-linecap="round">
    <line x1="15.0000000000013" y1="353.999999995356" x2="15.0" y2="10.0000000000002"/>
    <line x1="15.0" y1="10.0000000000002" x2="10.0" y2="10.0"/>
    <line x1="10.0" y1="10.0" x2="10.0000000000015" y2="353.999999995356"/>
    <line x1="10.0000000000015" y1="353.999999995356" x2="15.0000000000013" y2="353.999999995356"/>
  </g>
  <g id="face1" fill="none" stroke="rgb(0,0,255)" stroke-width="1" stroke-miterlimit="4" stroke-dasharray="none" stroke-linejoin="round" stroke-linecap="round">
    <line x1="10.0" y1="363.999999995356" x2="10.0" y2="747.899999995356"/>
    <line x1="10.0" y1="747.899999995356" x2="47.0382208255153" y2="747.899999990709"/>
    <line x1="47.0382208255153" y1="747.899999990709" x2="47.0382208255154" y2="745.899999990709"/>
    <line x1="47.0382208255154" y1="745.899999990709" x2="65.0382208255149" y2="745.899999990714"/>
    <line x1="65.0382208255149" y1="745.899999990714" x2="65.0382208255195" y2="727.899999990714"/>
    <line x1="65.0382208255195" y1="727.899999990714" x2="67.0382208255198" y2="727.899999990714"/>
    <line x1="67.0382208255198" y1="727.899999990714" x2="67.0382208256293" y2="383.899999995359"/>
    <line x1="67.0382208256293" y1="383.899999995359" x2="65.0382208256294" y2="383.899999995359"/>
    <line x1="65.0382208256294" y1="383.899999995359" x2="65.0382208256342" y2="365.89999999536"/>
    <line x1="65.0382208256342" y1="365.89999999536" x2="47.0382208256343" y2="365.899999995355"/>
    <line x1="47.0382208256343" y1="365.899999995355" x2="47.03822082563" y2="363.999999995356"/>
    <line x1="47.03822082563" y1="363.999999995356" x2="10.0" y2="363.999999995356"/>
  </g>
  <g id="face2" fill="none" stroke="rgb(0,0,255)" stroke-width="1" stroke-miterlimit="4" stroke-dasharray="none" stroke-linejoin="round" stroke-linecap="round">
    <line x1="47.0382208255156" y1="762.899999995357" x2="47.0382208255153" y2="757.899999995357"/>
    <line x1="47.0382208255153" y1="757.899999995357" x2="10.0" y2="757.899999995356"/>
    <line x1="10.0" y1="757.899999995356" x2="10.0" y2="762.899999995357"/>
    <line x1="10.0" y1="762.899999995357" x2="47.0382208255156" y2="762.899999995357"/>
  </g>
  <g id="face3" fill="none" stroke="rgb(0,0,255)" stroke-width="1" stroke-miterlimit="4" stroke-dasharray="none" stroke-linejoin="round" stroke-linecap="round">
    <line x1="10.0" y1="772.899999995357" x2="10.0" y2="1156.79999999536"/>
    <line x1="10.0" y1="1156.79999999536" x2="15.0" y2="1156.79999999536"/>
    <line x1="15.0" y1="1156.79999999536" x2="15.0" y2="772.899999995357"/>
    <line x1="15.0" y1="772.899999995357" x2="10.0" y2="772.899999995357"/>
  </g>
  <g id="face4" fill="none" stroke="rgb(0,0,255)" stroke-width="1" stroke-miterlimit="4" stroke-dasharray="none" stroke-linejoin="round" stroke-linecap="round">
    <line x1="10.0" y1="1171.79999999536" x2="47.03822082563" y2="1171.79999999536"/>
    <line x1="47.03822082563" y1="1171.79999999536" x2="47.03822082563" y2="1166.79999999536"/>
    <line x1="47.03822082563" y1="1166.79999999536" x2="10.0" y2="1166.79999999536"/>
    <line x1="10.0" y1="1166.79999999536" x2="10.0" y2="1171.79999999536"/>
  </g>
  <g id="face5" fill="none" stroke="rgb(0,0,255)" stroke-width="1" stroke-miterlimit="4" stroke-dasharray="none" stroke-linejoin="round" stroke-linecap="round">
    <line x1="67.0382208256294" y1="1545.79999999535" x2="67.0382208255201" y2="1201.8"/>
    <line x1="67.0382208255201" y1="1201.8" x2="65.0382208255199" y2="1201.8"/>
    <line x1="65.0382208255199" y1="1201.8" x2="65.0382208255152" y2="1183.8"/>
    <line x1="65.0382208255152" y1="1183.8" x2="47.0382208255157" y2="1183.8"/>
    <line x1="47.0382208255157" y1="1183.8" x2="47.0382208255156" y2="1181.8"/>
    <line x1="47.0382208255156" y1="1181.8" x2="10.0" y2="1181.79999999536"/>
    <line x1="10.0" y1="1181.79999999536" x2="10.0" y2="1565.69999999536"/>
    <line x1="10.0" y1="1565.69999999536" x2="47.03822082563" y2="1565.69999999536"/>
    <line x1="47.03822082563" y1="1565.69999999536" x2="47.0382208256344" y2="1563.79999999536"/>
    <line x1="47.0382208256344" y1="1563.79999999536" x2="65.0382208256343" y2="1563.79999999535"/>
    <line x1="65.0382208256343" y1="1563.79999999535" x2="65.0382208256295" y2="1545.79999999535"/>
    <line x1="65.0382208256295" y1="1545.79999999535" x2="67.0382208256294" y2="1545.79999999535"/>
  </g>
  <g id="face6" fill="none" stroke="rgb(0,0,255)" stroke-width="1" stroke-miterlimit="4" stroke-dasharray="none" stroke-linejoin="round" stroke-linecap="round">
    <line x1="12.0" y1="1575.69999999536" x2="10.0000000000001" y2="1575.69999999536"/>
    <line x1="10.0000000000001" y1="1575.69999999536" x2="10.0" y2="1580.69999999536"/>
    <line x1="10.0" y1="1580.69999999536" x2="12.0" y2="1580.69999999536"/>
    <line x1="12.0" y1="1580.69999999536" x2="12.0" y2="1575.69999999536"/>
  </g>
  <g id="face7" fill="none" stroke="rgb(0,0,255)" stroke-width="1" stroke-miterlimit="4" stroke-dasharray="none" stroke-linejoin="round" stroke-linecap="round">
    <line x1="10.0000000000015" y1="1952.69999999071" x2="10.0000000000015" y2="1970.69999999071"/>
    <line x1="10.0000000000015" y1="1970.69999999071" x2="15.0000000000014" y2="1970.69999999071"/>
    <line x1="15.0000000000014" y1="1970.69999999071" x2="15.0000000000014" y2="1952.69999999071"/>
    <line x1="15.0000000000014" y1="1952.69999999071" x2="10.0000000000015" y2="1952.69999999071"/>
  </g>
  <g id="face8" fill="none" stroke="rgb(0,0,255)" stroke-width="1" stroke-miterlimit="4" stroke-dasharray="none" stroke-linejoin="round" stroke-linecap="round">
    <line x1="10.0" y1="1590.69999999536" x2="10.0" y2="1608.69999999536"/>
    <line x1="10.0" y1="1608.69999999536" x2="15.0000000000001" y2="1608.69999999536"/>
    <line x1="15.0000000000001" y1="1608.69999999536" x2="15.0" y2="1590.69999999536"/>
    <line x1="15.0" y1="1590.69999999536" x2="10.0" y2="1590.69999999536"/>
  </g>
  <g id="face9" fill="none" stroke="rgb(0,0,255)" stroke-width="1" stroke-miterlimit="4" stroke-dasharray="none" stroke-linejoin="round" stroke-linecap="round">
    <line x1="27.9999999999999" y1="1980.69999999071" x2="10.0" y2="1980.69999999071"/>
    <line x1="10.0" y1="1980.69999999071" x2="10.0" y2="1985.69999999071"/>
    <line x1="10.0" y1="1985.69999999071" x2="27.9999999999999" y2="1985.69999999071"/>
    <line x1="27.9999999999999" y1="1985.69999999071" x2="27.9999999999999" y2="1980.69999999071"/>
  </g>
  <g id="face10" fill="none" stroke="rgb(0,0,255)" stroke-width="1" stroke-miterlimit="4" stroke-dasharray="none" stroke-linejoin="round" stroke-linecap="round">
    <line x1="10.0000000000015" y1="2377.69999998607" x2="10.0000000000016" y2="2379.59999998607"/>
    <line x1="10.0000000000016" y1="2379.59999998607" x2="15.0000000000015" y2="2379.59999998607"/>
    <line x1="15.0000000000015" y1="2379.59999998607" x2="15.0000000000014" y2="2377.69999998607"/>
    <line x1="15.0000000000014" y1="2377.69999998607" x2="10.0000000000015" y2="2377.69999998607"/>
  </g>
  <g id="face11" fill="none" stroke="rgb(0,0,255)" stroke-width="1" stroke-miterlimit="4" stroke-dasharray="none" stroke-linejoin="round" stroke-linecap="round">
    <line x1="10.0" y1="1995.69999999071" x2="10.0" y2="1997.69999999071"/>
    <line x1="10.0" y1="1997.69999999071" x2="15.0" y2="1997.69999999071"/>
    <line x1="15.0" y1="1997.69999999071" x2="15.0000000000001" y2="1995.69999999071"/>
    <line x1="15.0000000000001" y1="1995.69999999071" x2="10.0" y2="1995.69999999071"/>
  </g>
  <g id="face12" fill="none" stroke="rgb(0,0,255)" stroke-width="1" stroke-miterlimit="4" stroke-dasharray="none" stroke-linejoin="round" stroke-linecap="round">
    <line x1="10.0000000000003" y1="2394.59999998607" x2="27.9999999999998" y2="2394.59999998607"/>
    <line x1="27.9999999999998" y1="2394.59999998607" x2="27.9999999999995" y2="2389.59999998607"/>
    <line x1="27.9999999999995" y1="2389.59999998607" x2="10.0" y2="2389.59999998607"/>
    <line x1="10.0" y1="2389.59999998607" x2="10.0000000000003" y2="2394.59999998607"/>
  </g>
  <g id="face13" fill="none" stroke="rgb(0,0,255)" stroke-width="1" stroke-miterlimit="4" stroke-dasharray="none" stroke-linejoin="round" stroke-linecap="round">
    <line x1="10.0000000000003" y1="2409.59999998607" x2="12.0000000000005" y2="2409.59999998607"/>
    <line x1="12.0000000000005" y1="2409.59999998607" x2="12.0000000000003" y2="2404.59999998607"/>
    <line x1="12.0000000000003" y1="2404.59999998607" x2="10.0" y2="2404.59999998607"/>
    <line x1="10.0" y1="2404.59999998607" x2="10.0000000000003" y2="2409.59999998607"/>
  </g>
</svg>
