<?xml version="1.0" standalone="no"?>
<!DOCTYPE svg PUBLIC "-//W3C//DTD SVG 1.1//EN" "http://www.w3.org/Graphics/SVG/1.1/DTD/svg11.dtd">
<svg width="327.860829268128mm" height="170.0mm"
 viewBox="0 0 327.860829268128 170.0"
 xmlns="http://www.w3.org/2000/svg" version="1.1"
 xmlns:xlink="http://www.w3.org/1999/xlink">
<desc>Output from Flights of Ideas SVG Sketchup Plugin</desc>

  <g id="face0" fill="none" stroke="rgb(0,0,255)" stroke-width="1" stroke-miterlimit="4" stroke-dasharray="none" stroke-linejoin="round" stroke-linecap="round">
    <line x1="317.860829268124" y1="67.5000000000001" x2="300.360829268122" y2="50.0"/>
    <line x1="300.360829268122" y1="50.0" x2="290.663034960246" y2="50.0000000000001"/>
    <line x1="290.663034960246" y1="50.0000000000001" x2="255.663034960246" y2="50.0000000000001"/>
    <line x1="255.663034960246" y1="50.0000000000001" x2="244.800000000002" y2="39.2333044482748"/>
    <line x1="244.800000000002" y1="39.2333044482748" x2="192.366593641108" y2="39.2333044482749"/>
    <line x1="192.366593641108" y1="39.2333044482749" x2="82.103727465614" y2="39.2333044482752"/>
    <line x1="82.103727465614" y1="39.2333044482752" x2="62.8704230173366" y2="20.0000000000001"/>
    <line x1="62.8704230173366" y1="20.0000000000001" x2="52.8704230173355" y2="10.0"/>
    <line x1="52.8704230173355" y1="10.0" x2="19.9999999999989" y2="10.0"/>
    <line x1="19.9999999999989" y1="10.0" x2="10.0" y2="19.9999999999849"/>
    <line x1="10.0" y1="19.9999999999849" x2="10.0000000000147" y2="150.0"/>
    <line x1="10.0000000000147" y1="150.0" x2="20.0000000000157" y2="160.0"/>
    <line x1="20.0000000000157" y1="160.0" x2="52.8704230173523" y2="160.0"/>
    <line x1="52.8704230173523" y1="160.0" x2="62.8704230173512" y2="150.0"/>
    <line x1="62.8704230173512" y1="150.0" x2="82.1037274656242" y2="130.766695551725"/>
    <line x1="82.1037274656242" y1="130.766695551725" x2="192.619354389954" y2="130.766695551725"/>
    <line x1="192.619354389954" y1="130.766695551725" x2="244.800000000012" y2="130.766695551725"/>
    <line x1="244.800000000012" y1="130.766695551725" x2="255.663034960246" y2="120.0"/>
    <line x1="255.663034960246" y1="120.0" x2="290.663034960246" y2="120.0"/>
    <line x1="290.663034960246" y1="120.0" x2="300.36082926813" y2="120.0"/>
    <line x1="300.36082926813" y1="120.0" x2="317.860829268128" y2="102.5"/>
    <line x1="317.860829268128" y1="102.5" x2="317.860829268124" y2="67.5000000000001"/>
    <line x1="49.583263095521" y1="97.6600084781471" x2="49.4084526106623" y2="97.4321910188411"/>
    <line x1="49.4084526106623" y1="97.4321910188411" x2="49.1886716811518" y2="96.9015929180672"/>
    <line x1="49.1886716811518" y1="96.9015929180672" x2="49.1137084989886" y2="96.3321910188411"/>
    <line x1="49.1137084989886" y1="96.3321910188411" x2="49.1886716811518" y2="95.7627891196157"/>
    <line x1="49.1886716811518" y1="95.7627891196157" x2="49.4084526106623" y2="95.2321910188415"/>
    <line x1="49.4084526106623" y1="95.2321910188415" x2="49.7580735803768" y2="94.7765561002306"/>
    <line x1="49.7580735803768" y1="94.7765561002306" x2="50.2137084989869" y2="94.4269351305176"/>
    <line x1="50.2137084989869" y1="94.4269351305176" x2="50.744306599766" y2="94.2071542010072"/>
    <line x1="50.744306599766" y1="94.2071542010072" x2="51.3137084989911" y2="94.1321910188422"/>
    <line x1="51.3137084989911" y1="94.1321910188422" x2="51.8831103982175" y2="94.2071542010046"/>
    <line x1="51.8831103982175" y1="94.2071542010046" x2="52.4137084989879" y2="94.4269351305151"/>
    <line x1="52.4137084989879" y1="94.4269351305151" x2="52.6415259582929" y2="94.6017456153729"/>
    <line x1="52.6415259582929" y1="94.6017456153729" x2="52.869343417598" y2="94.7765561002291"/>
    <line x1="52.869343417598" y1="94.7765561002291" x2="53.218964387314" y2="95.2321910188422"/>
    <line x1="53.218964387314" y1="95.2321910188422" x2="53.4387453168245" y2="95.7627891196164"/>
    <line x1="53.4387453168245" y1="95.7627891196164" x2="53.5137084989876" y2="96.3321910188417"/>
    <line x1="53.5137084989876" y1="96.3321910188417" x2="53.4387453168245" y2="96.9015929180676"/>
    <line x1="53.4387453168245" y1="96.9015929180676" x2="53.218964387314" y2="97.4321910188417"/>
    <line x1="53.218964387314" y1="97.4321910188417" x2="52.8693434176024" y2="97.8878259374506"/>
    <line x1="52.8693434176024" y1="97.8878259374506" x2="52.4137084989922" y2="98.2374469071664"/>
    <line x1="52.4137084989922" y1="98.2374469071664" x2="51.8831103982175" y2="98.457227836677"/>
    <line x1="51.8831103982175" y1="98.457227836677" x2="51.3137084989926" y2="98.5321910188429"/>
    <line x1="51.3137084989926" y1="98.5321910188429" x2="50.744306599766" y2="98.4572278366792"/>
    <line x1="50.744306599766" y1="98.4572278366792" x2="50.2137084989913" y2="98.237446907169"/>
    <line x1="50.2137084989913" y1="98.237446907169" x2="49.7580735803811" y2="97.887825937452"/>
    <line x1="49.7580735803811" y1="97.887825937452" x2="49.583263095521" y2="97.6600084781471"/>
    <line x1="37.8297310413995" y1="100.732761191021" x2="37.8344732117701" y2="100.630547306909"/>
    <line x1="37.8344732117701" y1="100.630547306909" x2="38.0086667691094" y2="100.083286303269"/>
    <line x1="38.0086667691094" y1="100.083286303269" x2="38.3185663952951" y2="99.5997573763043"/>
    <line x1="38.3185663952951" y1="99.5997573763043" x2="38.7430529429426" y2="99.2129122233191"/>
    <line x1="38.7430529429426" y1="99.2129122233191" x2="39.2531983553266" y2="98.9491137021954"/>
    <line x1="39.2531983553266" y1="98.9491137021954" x2="39.8142370656466" y2="98.8263392462027"/>
    <line x1="39.8142370656466" y1="98.8263392462027" x2="40.387935212955" y2="98.8529557316221"/>
    <line x1="40.387935212955" y1="98.8529557316221" x2="40.9351962165942" y2="99.0271492889579"/>
    <line x1="40.9351962165942" y1="99.0271492889579" x2="41.4187251435593" y2="99.3370489151445"/>
    <line x1="41.4187251435593" y1="99.3370489151445" x2="41.8055702965442" y2="99.7615354627919"/>
    <line x1="41.8055702965442" y1="99.7615354627919" x2="42.069368817667" y2="100.271680875175"/>
    <line x1="42.069368817667" y1="100.271680875175" x2="42.1702689586059" y2="100.73276119102"/>
    <line x1="42.1702689586059" y1="100.73276119102" x2="42.1921432736544" y2="100.832719585494"/>
    <line x1="42.1921432736544" y1="100.832719585494" x2="42.1655267882355" y2="101.406417732804"/>
    <line x1="42.1655267882355" y1="101.406417732804" x2="41.9913332309003" y2="101.953678736445"/>
    <line x1="41.9913332309003" y1="101.953678736445" x2="41.6814336047141" y2="102.437207663409"/>
    <line x1="41.6814336047141" y1="102.437207663409" x2="41.2569470570666" y2="102.824052816394"/>
    <line x1="41.2569470570666" y1="102.824052816394" x2="40.7468016446829" y2="103.087851337517"/>
    <line x1="40.7468016446829" y1="103.087851337517" x2="40.1857629343626" y2="103.210625793507"/>
    <line x1="40.1857629343626" y1="103.210625793507" x2="39.6120647870543" y2="103.184009308088"/>
    <line x1="39.6120647870543" y1="103.184009308088" x2="39.064803783415" y2="103.009815750755"/>
    <line x1="39.064803783415" y1="103.009815750755" x2="38.5812748564501" y2="102.699916124569"/>
    <line x1="38.5812748564501" y1="102.699916124569" x2="38.1944297034653" y2="102.275429576921"/>
    <line x1="38.1944297034653" y1="102.275429576921" x2="37.930631182343" y2="101.765284164538"/>
    <line x1="37.930631182343" y1="101.765284164538" x2="37.8078567263513" y2="101.204245454218"/>
    <line x1="37.8078567263513" y1="101.204245454218" x2="37.8297310413995" y2="100.732761191021"/>
    <line x1="27.3584740417138" y1="94.6017456153728" x2="27.5862915010175" y2="94.4269351305165"/>
    <line x1="27.5862915010175" y1="94.4269351305165" x2="28.1168896017965" y2="94.2071542010058"/>
    <line x1="28.1168896017965" y1="94.2071542010058" x2="28.6862915010217" y2="94.1321910188422"/>
    <line x1="28.6862915010217" y1="94.1321910188422" x2="29.255693400248" y2="94.2071542010061"/>
    <line x1="29.255693400248" y1="94.2071542010061" x2="29.7862915010184" y2="94.4269351305167"/>
    <line x1="29.7862915010184" y1="94.4269351305167" x2="30.2419264196286" y2="94.7765561002308"/>
    <line x1="30.2419264196286" y1="94.7765561002308" x2="30.5915473893447" y2="95.2321910188406"/>
    <line x1="30.5915473893447" y1="95.2321910188406" x2="30.811328318855" y2="95.7627891196148"/>
    <line x1="30.811328318855" y1="95.7627891196148" x2="30.8862915010178" y2="96.3321910188404"/>
    <line x1="30.8862915010178" y1="96.3321910188404" x2="30.8113283188546" y2="96.9015929180661"/>
    <line x1="30.8113283188546" y1="96.9015929180661" x2="30.5915473893441" y2="97.4321910188403"/>
    <line x1="30.5915473893441" y1="97.4321910188403" x2="30.4167369044868" y2="97.660008478145"/>
    <line x1="30.4167369044868" y1="97.660008478145" x2="30.2419264196324" y2="97.8878259374508"/>
    <line x1="30.2419264196324" y1="97.8878259374508" x2="29.7862915010227" y2="98.2374469071681"/>
    <line x1="29.7862915010227" y1="98.2374469071681" x2="29.2556934002479" y2="98.4572278366782"/>
    <line x1="29.2556934002479" y1="98.4572278366782" x2="28.686291501023" y2="98.5321910188431"/>
    <line x1="28.686291501023" y1="98.5321910188431" x2="28.1168896017964" y2="98.4572278366774"/>
    <line x1="28.1168896017964" y1="98.4572278366774" x2="27.5862915010216" y2="98.2374469071667"/>
    <line x1="27.5862915010216" y1="98.2374469071667" x2="27.1306565824112" y2="97.8878259374518"/>
    <line x1="27.1306565824112" y1="97.8878259374518" x2="26.7810356126923" y2="97.4321910188434"/>
    <line x1="26.7810356126923" y1="97.4321910188434" x2="26.5612546831818" y2="96.9015929180691"/>
    <line x1="26.5612546831818" y1="96.9015929180691" x2="26.4862915010188" y2="96.3321910188434"/>
    <line x1="26.4862915010188" y1="96.3321910188434" x2="26.5612546831823" y2="95.7627891196178"/>
    <line x1="26.5612546831823" y1="95.7627891196178" x2="26.7810356126929" y2="95.2321910188438"/>
    <line x1="26.7810356126929" y1="95.2321910188438" x2="27.1306565824073" y2="94.7765561002316"/>
    <line x1="27.1306565824073" y1="94.7765561002316" x2="27.3584740417138" y2="94.6017456153728"/>
    <line x1="30.4167369044868" y1="72.376956561567" x2="30.5915473893456" y2="72.6047740208733"/>
    <line x1="30.5915473893456" y1="72.6047740208733" x2="30.811328318856" y2="73.1353721216449"/>
    <line x1="30.811328318856" y1="73.1353721216449" x2="30.886291501022" y2="73.7047740208719"/>
    <line x1="30.886291501022" y1="73.7047740208719" x2="30.8113283188592" y2="74.2741759200964"/>
    <line x1="30.8113283188592" y1="74.2741759200964" x2="30.5915473893487" y2="74.8047740208719"/>
    <line x1="30.5915473893487" y1="74.8047740208719" x2="30.2419264196341" y2="75.2604089394814"/>
    <line x1="30.2419264196341" y1="75.2604089394814" x2="29.7862915010242" y2="75.6100299091988"/>
    <line x1="29.7862915010242" y1="75.6100299091988" x2="29.2556934002495" y2="75.8298108387082"/>
    <line x1="29.2556934002495" y1="75.8298108387082" x2="28.6862915010187" y2="75.904774020874"/>
    <line x1="28.6862915010187" y1="75.904774020874" x2="28.1168896017979" y2="75.8298108387087"/>
    <line x1="28.1168896017979" y1="75.8298108387087" x2="27.5862915010232" y2="75.6100299091967"/>
    <line x1="27.5862915010232" y1="75.6100299091967" x2="27.3584740417182" y2="75.4352194243396"/>
    <line x1="27.3584740417182" y1="75.4352194243396" x2="27.1306565824129" y2="75.2604089394832"/>
    <line x1="27.1306565824129" y1="75.2604089394832" x2="26.7810356126969" y2="74.8047740208734"/>
    <line x1="26.7810356126969" y1="74.8047740208734" x2="26.5612546831864" y2="74.2741759200998"/>
    <line x1="26.5612546831864" y1="74.2741759200998" x2="26.4862915010231" y2="73.7047740208751"/>
    <line x1="26.4862915010231" y1="73.7047740208751" x2="26.5612546831833" y2="73.1353721216481"/>
    <line x1="26.5612546831833" y1="73.1353721216481" x2="26.7810356126939" y2="72.6047740208742"/>
    <line x1="26.7810356126939" y1="72.6047740208742" x2="27.1306565824083" y2="72.1491391022611"/>
    <line x1="27.1306565824083" y1="72.1491391022611" x2="27.5862915010187" y2="71.7995181325448"/>
    <line x1="27.5862915010187" y1="71.7995181325448" x2="28.1168896017934" y2="71.5797372030353"/>
    <line x1="28.1168896017934" y1="71.5797372030353" x2="28.6862915010201" y2="71.5047740208718"/>
    <line x1="28.6862915010201" y1="71.5047740208718" x2="29.2556934002449" y2="71.5797372030343"/>
    <line x1="29.2556934002449" y1="71.5797372030343" x2="29.7862915010197" y2="71.7995181325471"/>
    <line x1="29.7862915010197" y1="71.7995181325471" x2="30.2419264196295" y2="72.1491391022602"/>
    <line x1="30.2419264196295" y1="72.1491391022602" x2="30.4167369044868" y2="72.376956561567"/>
    <line x1="42.1625184089262" y1="69.3031834694771" x2="42.1250368178449" y2="69.5878844190797"/>
    <line x1="42.1250368178449" y1="69.5878844190797" x2="41.90525588833" y2="70.1184825198564"/>
    <line x1="41.90525588833" y1="70.1184825198564" x2="41.555634918614" y2="70.5741174384692"/>
    <line x1="41.555634918614" y1="70.5741174384692" x2="41.100000000004" y2="70.9237384081824"/>
    <line x1="41.100000000004" y1="70.9237384081824" x2="40.5694018992291" y2="71.1435193376904"/>
    <line x1="40.5694018992291" y1="71.1435193376904" x2="40.0000000000041" y2="71.2184825198553"/>
    <line x1="40.0000000000041" y1="71.2184825198553" x2="39.4305981007791" y2="71.1435193376915"/>
    <line x1="39.4305981007791" y1="71.1435193376915" x2="38.9000000000045" y2="70.9237384081835"/>
    <line x1="38.9000000000045" y1="70.9237384081835" x2="38.4443650813942" y2="70.5741174384658"/>
    <line x1="38.4443650813942" y1="70.5741174384658" x2="38.0947441116784" y2="70.1184825198608"/>
    <line x1="38.0947441116784" y1="70.1184825198608" x2="37.8749631821721" y2="69.5878844190857"/>
    <line x1="37.8749631821721" y1="69.5878844190857" x2="37.8374815910904" y2="69.3031834694673"/>
    <line x1="37.8374815910904" y1="69.3031834694673" x2="37.800000000009" y2="69.0184825198543"/>
    <line x1="37.800000000009" y1="69.0184825198543" x2="37.8749631821719" y2="68.4490806206344"/>
    <line x1="37.8749631821719" y1="68.4490806206344" x2="38.0947441116824" y2="67.9184825198404"/>
    <line x1="38.0947441116824" y1="67.9184825198404" x2="38.4443626114283" y2="67.5000000000001"/>
    <line x1="38.4443626114283" y1="67.5000000000001" x2="38.9000000000071" y2="67.1132266315383"/>
    <line x1="38.9000000000071" y1="67.1132266315383" x2="39.4305981007802" y2="66.8934457020175"/>
    <line x1="39.4305981007802" y1="66.8934457020175" x2="40.0000000000051" y2="66.8184825198554"/>
    <line x1="40.0000000000051" y1="66.8184825198554" x2="40.5694018992303" y2="66.8934457020171"/>
    <line x1="40.5694018992303" y1="66.8934457020171" x2="41.1000000000066" y2="67.1132266315466"/>
    <line x1="41.1000000000066" y1="67.1132266315466" x2="41.5556324208356" y2="67.5000000000001"/>
    <line x1="41.5556324208356" y1="67.5000000000001" x2="41.9052558883345" y2="67.9184825198572"/>
    <line x1="41.9052558883345" y1="67.9184825198572" x2="42.1250368178447" y2="68.4490806206273"/>
    <line x1="42.1250368178447" y1="68.4490806206273" x2="42.200000000008" y2="69.0184825198622"/>
    <line x1="42.200000000008" y1="69.0184825198622" x2="42.1625184089262" y2="69.3031834694771"/>
    <line x1="52.6415259582967" y1="75.4352194243382" x2="52.4137084989915" y2="75.6100299091976"/>
    <line x1="52.4137084989915" y1="75.6100299091976" x2="51.8831103982169" y2="75.8298108387079"/>
    <line x1="51.8831103982169" y1="75.8298108387079" x2="51.3137084989876" y2="75.9047740208742"/>
    <line x1="51.3137084989876" y1="75.9047740208742" x2="50.7443065997668" y2="75.829810838708"/>
    <line x1="50.7443065997668" y1="75.829810838708" x2="50.213708498992" y2="75.6100299091989"/>
    <line x1="50.213708498992" y1="75.6100299091989" x2="49.7580735803819" y2="75.2604089394824"/>
    <line x1="49.7580735803819" y1="75.2604089394824" x2="49.4084526106665" y2="74.8047740208694"/>
    <line x1="49.4084526106665" y1="74.8047740208694" x2="49.188671681156" y2="74.2741759200965"/>
    <line x1="49.188671681156" y1="74.2741759200965" x2="49.1137084989929" y2="73.7047740208739"/>
    <line x1="49.1137084989929" y1="73.7047740208739" x2="49.1886716811531" y2="73.1353721216437"/>
    <line x1="49.1886716811531" y1="73.1353721216437" x2="49.4084526106637" y2="72.6047740208701"/>
    <line x1="49.4084526106637" y1="72.6047740208701" x2="49.5832630955209" y2="72.3769565615689"/>
    <line x1="49.5832630955209" y1="72.3769565615689" x2="49.7580735803796" y2="72.149139102262"/>
    <line x1="49.7580735803796" y1="72.149139102262" x2="50.2137084989897" y2="71.799518132548"/>
    <line x1="50.2137084989897" y1="71.799518132548" x2="50.7443065997645" y2="71.5797372030393"/>
    <line x1="50.7443065997645" y1="71.5797372030393" x2="51.3137084989897" y2="71.5047740208719"/>
    <line x1="51.3137084989897" y1="71.5047740208719" x2="51.8831103982145" y2="71.579737203037"/>
    <line x1="51.8831103982145" y1="71.579737203037" x2="52.4137084989892" y2="71.7995181325429"/>
    <line x1="52.4137084989892" y1="71.7995181325429" x2="52.8693434175994" y2="72.1491391022611"/>
    <line x1="52.8693434175994" y1="72.1491391022611" x2="53.2189643873154" y2="72.6047740208754"/>
    <line x1="53.2189643873154" y1="72.6047740208754" x2="53.4387453168259" y2="73.1353721216477"/>
    <line x1="53.4387453168259" y1="73.1353721216477" x2="53.5137084989919" y2="73.7047740208728"/>
    <line x1="53.5137084989919" y1="73.7047740208728" x2="53.4387453168287" y2="74.2741759200984"/>
    <line x1="53.4387453168287" y1="74.2741759200984" x2="53.2189643873182" y2="74.8047740208726"/>
    <line x1="53.2189643873182" y1="74.8047740208726" x2="52.8693434176017" y2="75.2604089394808"/>
    <line x1="52.8693434176017" y1="75.2604089394808" x2="52.6415259582967" y2="75.4352194243382"/>
    <line x1="36.7647619362218" y1="97.0925553484682" x2="33.7500000000027" y2="95.8438000671603"/>
    <line x1="33.7500000000027" y1="95.8438000671603" x2="31.1611652351814" y2="93.8573172846863"/>
    <line x1="31.1611652351814" y1="93.8573172846863" x2="29.1746824526966" y2="91.2684825198601"/>
    <line x1="29.1746824526966" y1="91.2684825198601" x2="27.9259271713893" y2="88.2537205836369"/>
    <line x1="27.9259271713893" y1="88.2537205836369" x2="27.5000000000023" y2="85.0184825198556"/>
    <line x1="27.5000000000023" y1="85.0184825198556" x2="27.9259271713994" y2="81.7832444560742"/>
    <line x1="27.9259271713994" y1="81.7832444560742" x2="29.1746824526966" y2="78.7684825198596"/>
    <line x1="29.1746824526966" y1="78.7684825198596" x2="31.1611652351699" y2="76.1796477550239"/>
    <line x1="31.1611652351699" y1="76.1796477550239" x2="33.7500000000128" y2="74.19316497255"/>
    <line x1="33.7500000000128" y1="74.19316497255" x2="36.7647619362203" y2="72.9444096912412"/>
    <line x1="36.7647619362203" y1="72.9444096912412" x2="40.0000000000023" y2="72.5184825198571"/>
    <line x1="40.0000000000023" y1="72.5184825198571" x2="43.2352380637828" y2="72.9444096912408"/>
    <line x1="43.2352380637828" y1="72.9444096912408" x2="46.2500000000128" y2="74.1931649725496"/>
    <line x1="46.2500000000128" y1="74.1931649725496" x2="48.8388347648341" y2="76.1796477550225"/>
    <line x1="48.8388347648341" y1="76.1796477550225" x2="50.8253175473085" y2="78.7684825198596"/>
    <line x1="50.8253175473085" y1="78.7684825198596" x2="52.0740728286262" y2="81.7832444560731"/>
    <line x1="52.0740728286262" y1="81.7832444560731" x2="52.5000000000026" y2="85.0184825198544"/>
    <line x1="52.5000000000026" y1="85.0184825198544" x2="52.0740728286153" y2="88.2537205836364"/>
    <line x1="52.0740728286153" y1="88.2537205836364" x2="50.8253175473085" y2="91.2684825198605"/>
    <line x1="50.8253175473085" y1="91.2684825198605" x2="48.8388347648456" y2="93.8573172846865"/>
    <line x1="48.8388347648456" y1="93.8573172846865" x2="46.2500000000027" y2="95.84380006716"/>
    <line x1="46.2500000000027" y1="95.84380006716" x2="43.2352380637843" y2="97.0925553484675"/>
    <line x1="43.2352380637843" y1="97.0925553484675" x2="40.0000000000026" y2="97.518482519855"/>
    <line x1="40.0000000000026" y1="97.518482519855" x2="36.7647619362218" y2="97.0925553484682"/>
    <line x1="40.2807405972016" y1="24.6035830964322" x2="43.1172567158677" y2="25.050937929491"/>
    <line x1="43.1172567158677" y1="25.050937929491" x2="45.7413369408468" y2="26.2171939095063"/>
    <line x1="45.7413369408468" y1="26.2171939095063" x2="47.974154541302" y2="28.0228726187744"/>
    <line x1="47.974154541302" y1="28.0228726187744" x2="49.6635466876953" y2="30.3449200372663"/>
    <line x1="49.6635466876953" y1="30.3449200372663" x2="50.6943840970998" y2="33.0250924708005"/>
    <line x1="50.6943840970998" y1="33.0250924708005" x2="50.9964169035678" y2="35.8807405972074"/>
    <line x1="50.9964169035678" y1="35.8807405972074" x2="50.5490620705212" y2="38.7172567158615"/>
    <line x1="50.5490620705212" y1="38.7172567158615" x2="49.3828060904931" y2="41.3413369408341"/>
    <line x1="49.3828060904931" y1="41.3413369408341" x2="47.5771273812436" y2="43.5741545413099"/>
    <line x1="47.5771273812436" y1="43.5741545413099" x2="45.2550799627466" y2="45.2635466877013"/>
    <line x1="45.2550799627466" y1="45.2635466877013" x2="42.5749075292052" y2="46.2943840970872"/>
    <line x1="42.5749075292052" y1="46.2943840970872" x2="39.7192594027975" y2="46.5964169035682"/>
    <line x1="39.7192594027975" y1="46.5964169035682" x2="36.8827432841434" y2="46.1490620705094"/>
    <line x1="36.8827432841434" y1="46.1490620705094" x2="34.2586630591771" y2="44.9828060904948"/>
    <line x1="34.2586630591771" y1="44.9828060904948" x2="32.0258454587079" y2="43.1771273812374"/>
    <line x1="32.0258454587079" y1="43.1771273812374" x2="30.3364533123042" y2="40.8550799627332"/>
    <line x1="30.3364533123042" y1="40.8550799627332" x2="29.305615902924" y2="38.1749075292124"/>
    <line x1="29.305615902924" y1="38.1749075292124" x2="29.0035830964315" y2="35.319259402805"/>
    <line x1="29.0035830964315" y1="35.319259402805" x2="29.4509379295026" y2="32.4827432841506"/>
    <line x1="29.4509379295026" y1="32.4827432841506" x2="30.6171939095063" y2="29.8586630591661"/>
    <line x1="30.6171939095063" y1="29.8586630591661" x2="32.4228726187677" y2="27.6258454587033"/>
    <line x1="32.4228726187677" y1="27.6258454587033" x2="34.7449200372773" y2="25.9364533123113"/>
    <line x1="34.7449200372773" y1="25.9364533123113" x2="37.4250924708053" y2="24.9056159029126"/>
    <line x1="37.4250924708053" y1="24.9056159029126" x2="40.2807405972016" y2="24.6035830964322"/>
    <line x1="42.847009496129" y1="145.02518408918" x2="40.0000000000023" y2="145.4"/>
    <line x1="40.0000000000023" y1="145.4" x2="37.1529905038743" y2="145.02518408918"/>
    <line x1="37.1529905038743" y1="145.02518408918" x2="34.5000000000011" y2="143.926279441636"/>
    <line x1="34.5000000000011" y1="143.926279441636" x2="32.2218254069618" y2="142.178174593059"/>
    <line x1="32.2218254069618" y1="142.178174593059" x2="30.4737205583729" y2="139.900000000001"/>
    <line x1="30.4737205583729" y1="139.900000000001" x2="29.3748159108209" y2="137.247009496135"/>
    <line x1="29.3748159108209" y1="137.247009496135" x2="29.0000000000124" y2="134.400000000008"/>
    <line x1="29.0000000000124" y1="134.400000000008" x2="29.374815910821" y2="131.552990503879"/>
    <line x1="29.374815910821" y1="131.552990503879" x2="30.4737205583834" y2="128.900000000002"/>
    <line x1="30.4737205583834" y1="128.900000000002" x2="32.2218254069471" y2="126.621825406955"/>
    <line x1="32.2218254069471" y1="126.621825406955" x2="34.4999999999997" y2="124.873720558378"/>
    <line x1="34.4999999999997" y1="124.873720558378" x2="37.1529905038847" y2="123.774815910821"/>
    <line x1="37.1529905038847" y1="123.774815910821" x2="40.0000000000113" y2="123.400000000001"/>
    <line x1="40.0000000000113" y1="123.400000000001" x2="42.8470094961393" y2="123.774815910821"/>
    <line x1="42.8470094961393" y1="123.774815910821" x2="45.5" y2="124.873720558371"/>
    <line x1="45.5" y1="124.873720558371" x2="47.7781745930521" y2="126.621825406954"/>
    <line x1="47.7781745930521" y1="126.621825406954" x2="49.5262794416409" y2="128.899999999999"/>
    <line x1="49.5262794416409" y1="128.899999999999" x2="50.6251840891803" y2="131.552990503877"/>
    <line x1="50.6251840891803" y1="131.552990503877" x2="51.0000000000132" y2="134.400000000004"/>
    <line x1="51.0000000000132" y1="134.400000000004" x2="50.6251840891802" y2="137.247009496132"/>
    <line x1="50.6251840891802" y1="137.247009496132" x2="49.5262794416305" y2="139.899999999999"/>
    <line x1="49.5262794416305" y1="139.899999999999" x2="47.7781745930665" y2="142.178174593058"/>
    <line x1="47.7781745930665" y1="142.178174593058" x2="45.5000000000014" y2="143.926279441629"/>
    <line x1="45.5000000000014" y1="143.926279441629" x2="42.847009496129" y2="145.02518408918"/>
    <line x1="27.1875462925584" y1="45.3678506976148" x2="27.684407725576" y2="45.0798112595157"/>
    <line x1="27.684407725576" y1="45.0798112595157" x2="28.2388891081359" y2="44.9301837289051"/>
    <line x1="28.2388891081359" y1="44.9301837289051" x2="28.8132034503403" y2="44.9291649747349"/>
    <line x1="28.8132034503403" y1="44.9291649747349" x2="29.3682121788673" y2="45.0768244234012"/>
    <line x1="29.3682121788673" y1="45.0768244234012" x2="29.8660923660625" y2="45.3630993275057"/>
    <line x1="29.8660923660625" y1="45.3630993275057" x2="30.2729142999411" y2="45.7684805254175"/>
    <line x1="30.2729142999411" y1="45.7684805254175" x2="30.5609537380418" y2="46.2653419584353"/>
    <line x1="30.5609537380418" y1="46.2653419584353" x2="30.7105812686505" y2="46.8198233409953"/>
    <line x1="30.7105812686505" y1="46.8198233409953" x2="30.711600022828" y2="47.3941376831988"/>
    <line x1="30.711600022828" y1="47.3941376831988" x2="30.5639405741611" y2="47.9491464117261"/>
    <line x1="30.5639405741611" y1="47.9491464117261" x2="30.2776656700571" y2="48.4470265989224"/>
    <line x1="30.2776656700571" y1="48.4470265989224" x2="29.8722844721388" y2="48.8538485328222"/>
    <line x1="29.8722844721388" y1="48.8538485328222" x2="29.3754230391212" y2="49.1418879709223"/>
    <line x1="29.3754230391212" y1="49.1418879709223" x2="28.8209416565744" y2="49.2915155015315"/>
    <line x1="28.8209416565744" y1="49.2915155015315" x2="28.24662731437" y2="49.2925342557018"/>
    <line x1="28.24662731437" y1="49.2925342557018" x2="27.6916185858299" y2="49.144874807035"/>
    <line x1="27.6916185858299" y1="49.144874807035" x2="27.1937383986347" y2="48.8585999029314"/>
    <line x1="27.1937383986347" y1="48.8585999029314" x2="26.7869164647417" y2="48.4532187050186"/>
    <line x1="26.7869164647417" y1="48.4532187050186" x2="26.4988770266413" y2="47.9563572720017"/>
    <line x1="26.4988770266413" y1="47.9563572720017" x2="26.3492494960325" y2="47.4018758894418"/>
    <line x1="26.3492494960325" y1="47.4018758894418" x2="26.3482307418551" y2="46.8275615472371"/>
    <line x1="26.3482307418551" y1="46.8275615472371" x2="26.4958901905219" y2="46.2725528187107"/>
    <line x1="26.4958901905219" y1="46.2725528187107" x2="26.7821650946257" y2="45.7746726315148"/>
    <line x1="26.7821650946257" y1="45.7746726315148" x2="27.1875462925584" y2="45.3678506976148"/>
    <line x1="49.7827595761809" y1="48.4009716476755" x2="49.6055937268749" y2="48.1700846176589"/>
    <line x1="49.6055937268749" y1="48.1700846176589" x2="49.3858127973644" y2="47.6394865168845"/>
    <line x1="49.3858127973644" y1="47.6394865168845" x2="49.3108496152012" y2="47.0700846176581"/>
    <line x1="49.3108496152012" y1="47.0700846176581" x2="49.3858127973645" y2="46.5006827184336"/>
    <line x1="49.3858127973645" y1="46.5006827184336" x2="49.605593726875" y2="45.9700846176585"/>
    <line x1="49.605593726875" y1="45.9700846176585" x2="49.9552146966039" y2="45.5144496990551"/>
    <line x1="49.9552146966039" y1="45.5144496990551" x2="50.4108496152141" y2="45.1648287293399"/>
    <line x1="50.4108496152141" y1="45.1648287293399" x2="50.9414477159888" y2="44.9450477998295"/>
    <line x1="50.9414477159888" y1="44.9450477998295" x2="51.5108496152137" y2="44.8700846176583"/>
    <line x1="51.5108496152137" y1="44.8700846176583" x2="52.0802515144403" y2="44.9450477998224"/>
    <line x1="52.0802515144403" y1="44.9450477998224" x2="52.610849615215" y2="45.164828729332"/>
    <line x1="52.610849615215" y1="45.164828729332" x2="52.8355975038088" y2="45.3372838497402"/>
    <line x1="52.8355975038088" y1="45.3372838497402" x2="53.0664845338252" y2="45.5144496990533"/>
    <line x1="53.0664845338252" y1="45.5144496990533" x2="53.4161055035267" y2="45.9700846176631"/>
    <line x1="53.4161055035267" y1="45.9700846176631" x2="53.6358864330372" y2="46.5006827184381"/>
    <line x1="53.6358864330372" y1="46.5006827184381" x2="53.7108496152002" y2="47.0700846176642"/>
    <line x1="53.7108496152002" y1="47.0700846176642" x2="53.6358864330371" y2="47.6394865168891"/>
    <line x1="53.6358864330371" y1="47.6394865168891" x2="53.4161055035266" y2="48.1700846176639"/>
    <line x1="53.4161055035266" y1="48.1700846176639" x2="53.0664845338121" y2="48.6257195362746"/>
    <line x1="53.0664845338121" y1="48.6257195362746" x2="52.6108496152019" y2="48.9753405059834"/>
    <line x1="52.6108496152019" y1="48.9753405059834" x2="52.0802515144273" y2="49.1951214354939"/>
    <line x1="52.0802515144273" y1="49.1951214354939" x2="51.5108496152152" y2="49.2700846176581"/>
    <line x1="51.5108496152152" y1="49.2700846176581" x2="50.9414477159758" y2="49.1951214355013"/>
    <line x1="50.9414477159758" y1="49.1951214355013" x2="50.410849615201" y2="48.9753405059916"/>
    <line x1="50.410849615201" y1="48.9753405059916" x2="49.9552146965909" y2="48.6257195362761"/>
    <line x1="49.9552146965909" y1="48.6257195362761" x2="49.7827595761809" y2="48.4009716476755"/>
    <line x1="52.8009716476739" y1="25.817240423819" x2="52.5700846176576" y2="25.9944062731249"/>
    <line x1="52.5700846176576" y1="25.9944062731249" x2="52.0394865168829" y2="26.2141872026357"/>
    <line x1="52.0394865168829" y1="26.2141872026357" x2="51.4700846176578" y2="26.2891503848066"/>
    <line x1="51.4700846176578" y1="26.2891503848066" x2="50.9006827184314" y2="26.2141872026428"/>
    <line x1="50.9006827184314" y1="26.2141872026428" x2="50.3700846176566" y2="25.9944062731326"/>
    <line x1="50.3700846176566" y1="25.9944062731326" x2="49.9144496990465" y2="25.6447853034177"/>
    <line x1="49.9144496990465" y1="25.6447853034177" x2="49.5648287293305" y2="25.1891503847995"/>
    <line x1="49.5648287293305" y1="25.1891503847995" x2="49.345047799807" y2="24.6585522840257"/>
    <line x1="49.345047799807" y1="24.6585522840257" x2="49.2700846176439" y2="24.0891503847997"/>
    <line x1="49.2700846176439" y1="24.0891503847997" x2="49.345047799807" y2="23.5197484855744"/>
    <line x1="49.345047799807" y1="23.5197484855744" x2="49.5648287293175" y2="22.9891503848001"/>
    <line x1="49.5648287293175" y1="22.9891503848001" x2="49.7372838497261" y2="22.7644024962058"/>
    <line x1="49.7372838497261" y1="22.7644024962058" x2="49.914449699032" y2="22.5335154661964"/>
    <line x1="49.914449699032" y1="22.5335154661964" x2="50.3700846176422" y2="22.1838944964815"/>
    <line x1="50.3700846176422" y1="22.1838944964815" x2="50.9006827184169" y2="21.9641135669708"/>
    <line x1="50.9006827184169" y1="21.9641135669708" x2="51.4700846176419" y2="21.8891503848062"/>
    <line x1="51.4700846176419" y1="21.8891503848062" x2="52.0394865168684" y2="21.9641135669635"/>
    <line x1="52.0394865168684" y1="21.9641135669635" x2="52.5700846176431" y2="22.1838944964742"/>
    <line x1="52.5700846176431" y1="22.1838944964742" x2="53.0257195362533" y2="22.5335154661956"/>
    <line x1="53.0257195362533" y1="22.5335154661956" x2="53.3753405059693" y2="22.9891503848066"/>
    <line x1="53.3753405059693" y1="22.9891503848066" x2="53.5951214354798" y2="23.5197484855808"/>
    <line x1="53.5951214354798" y1="23.5197484855808" x2="53.6700846176429" y2="24.0891503848062"/>
    <line x1="53.6700846176429" y1="24.0891503848062" x2="53.5951214354798" y2="24.6585522840321"/>
    <line x1="53.5951214354798" y1="24.6585522840321" x2="53.3753405059823" y2="25.1891503848061"/>
    <line x1="53.3753405059823" y1="25.1891503848061" x2="53.0257195362677" y2="25.6447853034171"/>
    <line x1="53.0257195362677" y1="25.6447853034171" x2="52.8009716476739" y2="25.817240423819"/>
    <line x1="30.2172404238025" y1="22.7990283523403" x2="30.39440627311" y2="23.0299153823577"/>
    <line x1="30.39440627311" y1="23.0299153823577" x2="30.6141872026204" y2="23.5605134831316"/>
    <line x1="30.6141872026204" y1="23.5605134831316" x2="30.6891503847832" y2="24.1299153823576"/>
    <line x1="30.6891503847832" y1="24.1299153823576" x2="30.6141872026331" y2="24.6993172815831"/>
    <line x1="30.6141872026331" y1="24.6993172815831" x2="30.3944062731227" y2="25.2299153823569"/>
    <line x1="30.3944062731227" y1="25.2299153823569" x2="30.0447853034066" y2="25.6855503009735"/>
    <line x1="30.0447853034066" y1="25.6855503009735" x2="29.5891503847968" y2="26.0351712706895"/>
    <line x1="29.5891503847968" y1="26.0351712706895" x2="29.0585522840221" y2="26.2549522001992"/>
    <line x1="29.0585522840221" y1="26.2549522001992" x2="28.4891503847971" y2="26.3299153823641"/>
    <line x1="28.4891503847971" y1="26.3299153823641" x2="27.919748485572" y2="26.2549522001926"/>
    <line x1="27.919748485572" y1="26.2549522001926" x2="27.3891503847973" y2="26.0351712706822"/>
    <line x1="27.3891503847973" y1="26.0351712706822" x2="27.1644024962035" y2="25.8627161502731"/>
    <line x1="27.1644024962035" y1="25.8627161502731" x2="26.9335154661868" y2="25.6855503009727"/>
    <line x1="26.9335154661868" y1="25.6855503009727" x2="26.5838944964709" y2="25.2299153823627"/>
    <line x1="26.5838944964709" y1="25.2299153823627" x2="26.3641135669604" y2="24.6993172815887"/>
    <line x1="26.3641135669604" y1="24.6993172815887" x2="26.2891503847842" y2="24.1299153823632"/>
    <line x1="26.2891503847842" y1="24.1299153823632" x2="26.3641135669476" y2="23.5605134831373"/>
    <line x1="26.3641135669476" y1="23.5605134831373" x2="26.5838944964582" y2="23.0299153823631"/>
    <line x1="26.5838944964582" y1="23.0299153823631" x2="26.9335154661743" y2="22.5742804637516"/>
    <line x1="26.9335154661743" y1="22.5742804637516" x2="27.3891503847844" y2="22.2246594940306"/>
    <line x1="27.3891503847844" y1="22.2246594940306" x2="27.9197484855592" y2="22.0048785645211"/>
    <line x1="27.9197484855592" y1="22.0048785645211" x2="28.4891503847843" y2="21.9299153823633"/>
    <line x1="28.4891503847843" y1="21.9299153823633" x2="29.0585522840092" y2="22.0048785645284"/>
    <line x1="29.0585522840092" y1="22.0048785645284" x2="29.5891503847839" y2="22.2246594940378"/>
    <line x1="29.5891503847839" y1="22.2246594940378" x2="30.0447853033941" y2="22.5742804637526"/>
    <line x1="30.0447853033941" y1="22.5742804637526" x2="30.2172404238025" y2="22.7990283523403"/>
    <line x1="52.9262964391641" y1="124.583142444763" x2="52.4660704933786" y2="124.92669750635"/>
    <line x1="52.4660704933786" y1="124.92669750635" x2="51.932607773434" y2="125.139430973276"/>
    <line x1="51.932607773434" y1="125.139430973276" x2="51.3622628821054" y2="125.206845411331"/>
    <line x1="51.3622628821054" y1="125.206845411331" x2="50.7939038811976" y2="125.124346637953"/>
    <line x1="50.7939038811976" y1="125.124346637953" x2="50.2662634973645" y2="124.89755680822"/>
    <line x1="50.2662634973645" y1="124.89755680822" x2="49.8152995507988" y2="124.541931274231"/>
    <line x1="49.8152995507988" y1="124.541931274231" x2="49.4717444892202" y2="124.081705328447"/>
    <line x1="49.4717444892202" y1="124.081705328447" x2="49.2590110222921" y2="123.548242608502"/>
    <line x1="49.2590110222921" y1="123.548242608502" x2="49.1915965842444" y2="122.977897717173"/>
    <line x1="49.1915965842444" y1="122.977897717173" x2="49.2740953576225" y2="122.409538716266"/>
    <line x1="49.2740953576225" y1="122.409538716266" x2="49.5008851873559" y2="121.881898332433"/>
    <line x1="49.5008851873559" y1="121.881898332433" x2="49.8258767717276" y2="121.469780884464"/>
    <line x1="49.8258767717276" y1="121.469780884464" x2="49.8565107213212" y2="121.430934385874"/>
    <line x1="49.8565107213212" y1="121.430934385874" x2="50.3167366671066" y2="121.087379324278"/>
    <line x1="50.3167366671066" y1="121.087379324278" x2="50.8501993870512" y2="120.874645857351"/>
    <line x1="50.8501993870512" y1="120.874645857351" x2="51.4205442783801" y2="120.807231419303"/>
    <line x1="51.4205442783801" y1="120.807231419303" x2="51.9889032792877" y2="120.889730192674"/>
    <line x1="51.9889032792877" y1="120.889730192674" x2="52.5165436631207" y2="121.116520022408"/>
    <line x1="52.5165436631207" y1="121.116520022408" x2="52.9675076096865" y2="121.472145556397"/>
    <line x1="52.9675076096865" y1="121.472145556397" x2="53.3110626712977" y2="121.932371502183"/>
    <line x1="53.3110626712977" y1="121.932371502183" x2="53.5237961382257" y2="122.465834222127"/>
    <line x1="53.5237961382257" y1="122.465834222127" x2="53.5912105762727" y2="123.036179113456"/>
    <line x1="53.5912105762727" y1="123.036179113456" x2="53.5087118028953" y2="123.604538114364"/>
    <line x1="53.5087118028953" y1="123.604538114364" x2="53.2819219731619" y2="124.132178498196"/>
    <line x1="53.2819219731619" y1="124.132178498196" x2="52.9262964391641" y2="124.583142444763"/>
    <line x1="30.1642460842727" y1="121.451388969885" x2="30.5138670540049" y2="121.907023888495"/>
    <line x1="30.5138670540049" y1="121.907023888495" x2="30.7336479835154" y2="122.437621989269"/>
    <line x1="30.7336479835154" y1="122.437621989269" x2="30.8086111656785" y2="123.007023888495"/>
    <line x1="30.8086111656785" y1="123.007023888495" x2="30.7336479835154" y2="123.576425787721"/>
    <line x1="30.7336479835154" y1="123.576425787721" x2="30.5138670540051" y2="124.107023888495"/>
    <line x1="30.5138670540051" y1="124.107023888495" x2="30.1642460842717" y2="124.562658807106"/>
    <line x1="30.1642460842717" y1="124.562658807106" x2="29.7086111656616" y2="124.912279776829"/>
    <line x1="29.7086111656616" y1="124.912279776829" x2="29.1780130648868" y2="125.132060706339"/>
    <line x1="29.1780130648868" y1="125.132060706339" x2="28.608611165662" y2="125.207023888503"/>
    <line x1="28.608611165662" y1="125.207023888503" x2="28.0392092664368" y2="125.13206070633"/>
    <line x1="28.0392092664368" y1="125.13206070633" x2="27.508611165662" y2="124.912279776819"/>
    <line x1="27.508611165662" y1="124.912279776819" x2="27.0529762470519" y2="124.562658807104"/>
    <line x1="27.0529762470519" y1="124.562658807104" x2="26.7033552773534" y2="124.107023888501"/>
    <line x1="26.7033552773534" y1="124.107023888501" x2="26.4835743478426" y2="123.576425787727"/>
    <line x1="26.4835743478426" y1="123.576425787727" x2="26.4086111656795" y2="123.007023888501"/>
    <line x1="26.4086111656795" y1="123.007023888501" x2="26.4835743478426" y2="122.437621989275"/>
    <line x1="26.4835743478426" y1="122.437621989275" x2="26.7033552773532" y2="121.907023888501"/>
    <line x1="26.7033552773532" y1="121.907023888501" x2="27.0529762470529" y2="121.451388969882"/>
    <line x1="27.0529762470529" y1="121.451388969882" x2="27.5086111656631" y2="121.101768000167"/>
    <line x1="27.5086111656631" y1="121.101768000167" x2="28.0392092664378" y2="120.881987070659"/>
    <line x1="28.0392092664378" y1="120.881987070659" x2="28.608611165663" y2="120.807023888503"/>
    <line x1="28.608611165663" y1="120.807023888503" x2="29.1780130648878" y2="120.881987070667"/>
    <line x1="29.1780130648878" y1="120.881987070667" x2="29.7086111656625" y2="121.101768000177"/>
    <line x1="29.7086111656625" y1="121.101768000177" x2="30.1642460842727" y2="121.451388969885"/>
    <line x1="27.0529617182123" y1="144.23732688321" x2="27.5085966368223" y2="143.887705913495"/>
    <line x1="27.5085966368223" y1="143.887705913495" x2="28.039194737597" y2="143.667924983986"/>
    <line x1="28.039194737597" y1="143.667924983986" x2="28.6085966368221" y2="143.592961801831"/>
    <line x1="28.6085966368221" y1="143.592961801831" x2="29.1779985360471" y2="143.667924983995"/>
    <line x1="29.1779985360471" y1="143.667924983995" x2="29.7085966368218" y2="143.887705913505"/>
    <line x1="29.7085966368218" y1="143.887705913505" x2="30.1642315554321" y2="144.237326883212"/>
    <line x1="30.1642315554321" y1="144.237326883212" x2="30.5138525251475" y2="144.692961801823"/>
    <line x1="30.5138525251475" y1="144.692961801823" x2="30.733633454658" y2="145.223559902597"/>
    <line x1="30.733633454658" y1="145.223559902597" x2="30.8085966368211" y2="145.792961801823"/>
    <line x1="30.8085966368211" y1="145.792961801823" x2="30.7336334546583" y2="146.362363701048"/>
    <line x1="30.7336334546583" y1="146.362363701048" x2="30.5138525251637" y2="146.892961801823"/>
    <line x1="30.5138525251637" y1="146.892961801823" x2="30.1642315554477" y2="147.348596720433"/>
    <line x1="30.1642315554477" y1="147.348596720433" x2="29.7085966368376" y2="147.698217690157"/>
    <line x1="29.7085966368376" y1="147.698217690157" x2="29.1779985360628" y2="147.917998619667"/>
    <line x1="29.1779985360628" y1="147.917998619667" x2="28.6085966368378" y2="147.992961801831"/>
    <line x1="28.6085966368378" y1="147.992961801831" x2="28.0391947376127" y2="147.917998619658"/>
    <line x1="28.0391947376127" y1="147.917998619658" x2="27.5085966368381" y2="147.698217690147"/>
    <line x1="27.5085966368381" y1="147.698217690147" x2="27.0529617182279" y2="147.348596720431"/>
    <line x1="27.0529617182279" y1="147.348596720431" x2="26.7033407485119" y2="146.892961801829"/>
    <line x1="26.7033407485119" y1="146.892961801829" x2="26.4835598189856" y2="146.362363701055"/>
    <line x1="26.4835598189856" y1="146.362363701055" x2="26.4085966368221" y2="145.792961801829"/>
    <line x1="26.4085966368221" y1="145.792961801829" x2="26.4835598189852" y2="145.223559902603"/>
    <line x1="26.4835598189852" y1="145.223559902603" x2="26.7033407484957" y2="144.692961801829"/>
    <line x1="26.7033407484957" y1="144.692961801829" x2="27.0529617182123" y2="144.23732688321"/>
    <line x1="49.8358882451058" y1="147.348259987333" x2="49.4862990181346" y2="146.892600713417"/>
    <line x1="49.4862990181346" y1="146.892600713417" x2="49.2665550533605" y2="146.361987302849"/>
    <line x1="49.2665550533605" y1="146.361987302849" x2="49.1916315388713" y2="145.792580182681"/>
    <line x1="49.1916315388713" y1="145.792580182681" x2="49.2666343883473" y2="145.223183507162"/>
    <line x1="49.2666343883473" y1="145.223183507162" x2="49.4864522815431" y2="144.692600718756"/>
    <line x1="49.4864522815431" y1="144.692600718756" x2="49.8361049923037" y2="144.236990157662"/>
    <line x1="49.8361049923037" y1="144.236990157662" x2="50.2917642662213" y2="143.887400930698"/>
    <line x1="50.2917642662213" y1="143.887400930698" x2="50.8223776767896" y2="143.667656965941"/>
    <line x1="50.8223776767896" y1="143.667656965941" x2="51.3917847969574" y2="143.592733451452"/>
    <line x1="51.3917847969574" y1="143.592733451452" x2="51.9611814724776" y2="143.667736300919"/>
    <line x1="51.9611814724776" y1="143.667736300919" x2="52.491764260883" y2="143.887554194117"/>
    <line x1="52.491764260883" y1="143.887554194117" x2="52.9473748219752" y2="144.237206904887"/>
    <line x1="52.9473748219752" y1="144.237206904887" x2="53.2969640489471" y2="144.692866178804"/>
    <line x1="53.2969640489471" y1="144.692866178804" x2="53.5167080137054" y2="145.223479589372"/>
    <line x1="53.5167080137054" y1="145.223479589372" x2="53.5916315281946" y2="145.79288670954"/>
    <line x1="53.5916315281946" y1="145.79288670954" x2="53.5166286787186" y2="146.362283385059"/>
    <line x1="53.5166286787186" y1="146.362283385059" x2="53.2968107855386" y2="146.892866173466"/>
    <line x1="53.2968107855386" y1="146.892866173466" x2="52.9471580747773" y2="147.348476734558"/>
    <line x1="52.9471580747773" y1="147.348476734558" x2="52.4914988008598" y2="147.698065961522"/>
    <line x1="52.4914988008598" y1="147.698065961522" x2="51.9608853902915" y2="147.917809926278"/>
    <line x1="51.9608853902915" y1="147.917809926278" x2="51.3914782701237" y2="147.992733440775"/>
    <line x1="51.3914782701237" y1="147.992733440775" x2="50.8220815946035" y2="147.9177305913"/>
    <line x1="50.8220815946035" y1="147.9177305913" x2="50.2914988061981" y2="147.697912698103"/>
    <line x1="50.2914988061981" y1="147.697912698103" x2="49.8358882451058" y2="147.348259987333"/>
    <line x1="77.6413598440622" y1="117.736600139049" x2="78.1352674160968" y2="118.344375127909"/>
    <line x1="78.1352674160968" y1="118.344375127909" x2="78.4550417534709" y2="119.059273372384"/>
    <line x1="78.4550417534709" y1="119.059273372384" x2="78.5788907635442" y2="119.832575738539"/>
    <line x1="78.5788907635442" y1="119.832575738539" x2="78.4983743409508" y2="120.611582948063"/>
    <line x1="78.4983743409508" y1="120.611582948063" x2="78.2189795468307" y2="121.343206946996"/>
    <line x1="78.2189795468307" y1="121.343206946996" x2="77.7597466746812" y2="121.977588768878"/>
    <line x1="77.7597466746812" y1="121.977588768878" x2="77.1519716858214" y2="122.471496340913"/>
    <line x1="77.1519716858214" y1="122.471496340913" x2="76.4370734413461" y2="122.791270678287"/>
    <line x1="76.4370734413461" y1="122.791270678287" x2="75.6637710751912" y2="122.91511968836"/>
    <line x1="75.6637710751912" y1="122.91511968836" x2="74.8847638656678" y2="122.834603265766"/>
    <line x1="74.8847638656678" y1="122.834603265766" x2="74.1531398667344" y2="122.555208471646"/>
    <line x1="74.1531398667344" y1="122.555208471646" x2="73.5187580448526" y2="122.095975599497"/>
    <line x1="73.5187580448526" y1="122.095975599497" x2="73.024850472818" y2="121.488200610637"/>
    <line x1="73.024850472818" y1="121.488200610637" x2="72.7050761354441" y2="120.773302366162"/>
    <line x1="72.7050761354441" y1="120.773302366162" x2="72.5812271253706" y2="120.000000000007"/>
    <line x1="72.5812271253706" y1="120.000000000007" x2="72.661743547964" y2="119.220992790483"/>
    <line x1="72.661743547964" y1="119.220992790483" x2="72.9411383420841" y2="118.48936879155"/>
    <line x1="72.9411383420841" y1="118.48936879155" x2="73.4003712142336" y2="117.854986969668"/>
    <line x1="73.4003712142336" y1="117.854986969668" x2="74.0081462030935" y2="117.361079397633"/>
    <line x1="74.0081462030935" y1="117.361079397633" x2="74.7230444475688" y2="117.041305060259"/>
    <line x1="74.7230444475688" y1="117.041305060259" x2="75.4963468137236" y2="116.917456050186"/>
    <line x1="75.4963468137236" y1="116.917456050186" x2="76.275354023247" y2="116.99797247278"/>
    <line x1="76.275354023247" y1="116.99797247278" x2="77.0069780221805" y2="117.2773672669"/>
    <line x1="77.0069780221805" y1="117.2773672669" x2="77.6413598440622" y2="117.736600139049"/>
    <line x1="78.1980762113453" y1="51.4999999999918" x2="77.7213203435518" y2="52.1213203435514"/>
    <line x1="77.7213203435518" y1="52.1213203435514" x2="77.0999999999921" y2="52.5980762113443"/>
    <line x1="77.0999999999921" y1="52.5980762113443" x2="76.3764571352997" y2="52.8977774788585"/>
    <line x1="76.3764571352997" y1="52.8977774788585" x2="75.599999999992" y2="52.9999999999918"/>
    <line x1="75.599999999992" y1="52.9999999999918" x2="74.8235428646847" y2="52.8977774788583"/>
    <line x1="74.8235428646847" y1="52.8977774788583" x2="74.0999999999921" y2="52.5980762113453"/>
    <line x1="74.0999999999921" y1="52.5980762113453" x2="73.4786796564325" y2="52.1213203435514"/>
    <line x1="73.4786796564325" y1="52.1213203435514" x2="73.0019237886388" y2="51.4999999999912"/>
    <line x1="73.0019237886388" y1="51.4999999999912" x2="72.702222521125" y2="50.7764571352995"/>
    <line x1="72.702222521125" y1="50.7764571352995" x2="72.5999999999921" y2="49.9999999999919"/>
    <line x1="72.5999999999921" y1="49.9999999999919" x2="72.7022225211249" y2="49.2235428646844"/>
    <line x1="72.7022225211249" y1="49.2235428646844" x2="73.0019237886388" y2="48.499999999992"/>
    <line x1="73.0019237886388" y1="48.499999999992" x2="73.4786796564325" y2="47.8786796564323"/>
    <line x1="73.4786796564325" y1="47.8786796564323" x2="74.099999999992" y2="47.4019237886385"/>
    <line x1="74.099999999992" y1="47.4019237886385" x2="74.8235428646845" y2="47.1022225211249"/>
    <line x1="74.8235428646845" y1="47.1022225211249" x2="75.5999999999922" y2="46.9999999999917"/>
    <line x1="75.5999999999922" y1="46.9999999999917" x2="76.3764571352997" y2="47.1022225211241"/>
    <line x1="76.3764571352997" y1="47.1022225211241" x2="77.0999999999921" y2="47.4019237886376"/>
    <line x1="77.0999999999921" y1="47.4019237886376" x2="77.7213203435518" y2="47.8786796564319"/>
    <line x1="77.7213203435518" y1="47.8786796564319" x2="78.1980762113454" y2="48.4999999999912"/>
    <line x1="78.1980762113454" y1="48.4999999999912" x2="78.4977774788593" y2="49.2235428646838"/>
    <line x1="78.4977774788593" y1="49.2235428646838" x2="78.599999999992" y2="49.9999999999917"/>
    <line x1="78.599999999992" y1="49.9999999999917" x2="78.4977774788594" y2="50.7764571352997"/>
    <line x1="78.4977774788594" y1="50.7764571352997" x2="78.1980762113453" y2="51.4999999999918"/>
    <line x1="306.441725434906" y1="87.9245949346128" x2="305.663034960252" y2="88.0271114804488"/>
    <line x1="305.663034960252" y1="88.0271114804488" x2="304.884344485598" y2="87.9245949346127"/>
    <line x1="304.884344485598" y1="87.9245949346127" x2="304.158720479955" y2="87.6240316302765"/>
    <line x1="304.158720479955" y1="87.6240316302765" x2="303.535613020152" y2="87.1459044599587"/>
    <line x1="303.535613020152" y1="87.1459044599587" x2="303.057485849837" y2="86.52279700016"/>
    <line x1="303.057485849837" y1="86.52279700016" x2="302.756922545492" y2="85.7971729945188"/>
    <line x1="302.756922545492" y1="85.7971729945188" x2="302.654405999654" y2="85.0184825198596"/>
    <line x1="302.654405999654" y1="85.0184825198596" x2="302.756922545488" y2="84.2397920452144"/>
    <line x1="302.756922545488" y1="84.2397920452144" x2="303.057485849809" y2="83.5141680395686"/>
    <line x1="303.057485849809" y1="83.5141680395686" x2="303.535613020133" y2="82.8910605797577"/>
    <line x1="303.535613020133" y1="82.8910605797577" x2="304.158720479951" y2="82.4129334094288"/>
    <line x1="304.158720479951" y1="82.4129334094288" x2="304.884344485597" y2="82.1123701051214"/>
    <line x1="304.884344485597" y1="82.1123701051214" x2="305.663034960234" y2="82.0098535592879"/>
    <line x1="305.663034960234" y1="82.0098535592879" x2="306.44172543487" y2="82.1123701051216"/>
    <line x1="306.44172543487" y1="82.1123701051216" x2="307.167349440517" y2="82.4129334094299"/>
    <line x1="307.167349440517" y1="82.4129334094299" x2="307.790456900334" y2="82.8910605797584"/>
    <line x1="307.790456900334" y1="82.8910605797584" x2="308.268584070658" y2="83.5141680395694"/>
    <line x1="308.268584070658" y1="83.5141680395694" x2="308.56914737498" y2="84.2397920452147"/>
    <line x1="308.56914737498" y1="84.2397920452147" x2="308.671663920813" y2="85.0184825198571"/>
    <line x1="308.671663920813" y1="85.0184825198571" x2="308.569147374984" y2="85.7971729944856"/>
    <line x1="308.569147374984" y1="85.7971729944856" x2="308.268584070687" y2="86.5227970001361"/>
    <line x1="308.268584070687" y1="86.5227970001361" x2="307.790456900353" y2="87.1459044599595"/>
    <line x1="307.790456900353" y1="87.1459044599595" x2="307.167349440549" y2="87.6240316302777"/>
    <line x1="307.167349440549" y1="87.6240316302777" x2="306.441725434906" y2="87.9245949346128"/>
  </g>
</svg>
